Place,Name,CyrillicName,BirthYear,BodyweightKg,Best3SquatKg,Best3BenchKg,Best3DeadliftKg,TotalKg,WeightClassKg,Event,Equipment,Division,Sex,BirthDate
1,Alina Aybusheva,Алина Айбушева,1999,46.56,95,50,105,250,47,SBD,Raw,Open,F,
2,Alina Davydenko,Алина Давыденко,1993,46.86,82.5,52.5,95,230,47,SBD,Raw,Open,F,
3,Kseniya Ilina,Ксения Ильина,1999,47,77.5,45,92.5,215,47,SBD,Raw,Open,F,
4,Vera Ivleva,Вера Ивлева,1997,44.72,55,40,95,190,47,SBD,Raw,Open,F,
DQ,Irina Karavanova,Ирина Караванова,1989,46.44,-90,,,,47,SBD,Raw,Open,F,
1,Anastasiya Malysheva,Анастасия Малышева,2000,51.76,115,62.5,140,317.5,52,SBD,Raw,Open,F,
2,Alena Baranyuk,Алена Баранюк,1989,51.7,110,62.5,120,292.5,52,SBD,Raw,Open,F,
3,Aliya Valieva,Алия Валиева,1998,52,92.5,55,135,282.5,52,SBD,Raw,Open,F,
4,Anastasiya Marchuk,Анастасия Марчук,1992,50.86,90,57.5,132.5,280,52,SBD,Raw,Open,F,
5,Ekaterina Osnovina,Екатерина Основина,1997,51.9,107.5,57.5,110,275,52,SBD,Raw,Open,F,
6,Alina Georgievskaya,Алина Георгиевская,2002,52,95,52.5,127.5,275,52,SBD,Raw,Open,F,
7,Svetlana Kaseva,Светлана Касева,1996,52,102.5,55,110,267.5,52,SBD,Raw,Open,F,
8,Yuliya Fayzulina,Юлия Файзулина,1993,51.96,100,60,105,265,52,SBD,Raw,Open,F,
9,Tatyana Seimova,Татьяна Сеимова,1991,51.78,95,55,112.5,262.5,52,SBD,Raw,Open,F,
10,Ekaterina Boychuk,Екатерина Бойчук,1994,51.72,105,55,100,260,52,SBD,Raw,Open,F,
11,Eva Kadochnikova,Ева Кадочникова,2002,51.22,85,52.5,115,252.5,52,SBD,Raw,Open,F,
12,Darya Soktoeva,Дарья Соктоева,1983,51.68,80,45,110,235,52,SBD,Raw,Open,F,
13,Yuliya Kedrina,Юлия Кедрина,1980,48.84,70,50,105,225,52,SBD,Raw,Open,F,
DQ,Anastasiya Selivyorstova,Анастасия Селивёрстова,1988,50.34,55,-50,,,52,SBD,Raw,Open,F,
DQ,Olga Goldebaeva,Ольга Гольдебаева,1982,51.82,-65,,,,52,SBD,Raw,Open,F,
1,Elena Ponomareva,Елена Пономарева,1990,56.7,140,70,157.5,367.5,57,SBD,Raw,Open,F,
2,Ekaterina Yashkina,Екатерина Яшкина,1992,57,125,85,157.5,367.5,57,SBD,Raw,Open,F,
3,Kseniya Lebedeva,Ксения Лебедева,1982,54.3,120,72.5,142.5,335,57,SBD,Raw,Open,F,
4,Yuliya Khodneva,Юлия Ходнева,1997,56.5,125,70,137.5,332.5,57,SBD,Raw,Open,F,
5,Albina Galimova,Альбина Галимова,1990,55.54,127.5,70,130,327.5,57,SBD,Raw,Open,F,
6,Kseniya Almasova,Ксения Алмасова,1992,56.18,125,70,125,320,57,SBD,Raw,Open,F,
7,Irina Dudyreva,Ирина Дудырева,1990,55.56,110,70,130,310,57,SBD,Raw,Open,F,
8,Aleksandra Bystrova,Александра Быстрова,1993,56.84,115,70,125,310,57,SBD,Raw,Open,F,
9,Vasilina Medvedeva,Василина Медведева,1998,56.96,112.5,70,127.5,310,57,SBD,Raw,Open,F,
10,Darya Nekhtsa,Дарья Нехца,2000,56.96,112.5,67.5,130,310,57,SBD,Raw,Open,F,
11,Anna Sycheva,Анна Сычева,1999,56.5,112.5,60,127.5,300,57,SBD,Raw,Open,F,
12,Maya Charyeva,Мая Чарыева,1992,56.54,107.5,65,127.5,300,57,SBD,Raw,Open,F,
13,Evgeniya Panasenko,Евгения Панасенко,2004,57,115,62.5,105,282.5,57,SBD,Raw,Open,F,
14,Kseniya Zhalnina,Ксения Жалнина,1982,54.78,95,62.5,122.5,280,57,SBD,Raw,Open,F,
15,Elizaveta Anufrieva,Елизавета Ануфриева,1988,56.76,95,67.5,117.5,280,57,SBD,Raw,Open,F,
16,Sofya Prisekina,Софья Присекина,1997,55.12,85,47.5,110,242.5,57,SBD,Raw,Open,F,
17,Polina Borshcheva,Полина Борщева,2001,57,85,50,105,240,57,SBD,Raw,Open,F,
18,Elena Aleksandrova,Елена Александрова,1994,56.22,100,45,90,235,57,SBD,Raw,Open,F,
DQ,Lyubov Rusnak,Любовь Руснак,1999,56.36,112.5,57.5,-140,,57,SBD,Raw,Open,F,
DQ,Yana Nasonova,Яна Насонова,2002,56.34,95,-55,,,57,SBD,Raw,Open,F,
1,Yuliya Vavilova,Юлия Вавилова,1979,60.02,150.5,80,150,380.5,63,SBD,Raw,Open,F,
2,Aleksandra Chernovol,Александра Черновол,2000,62.5,120,90,140,350,63,SBD,Raw,Open,F,
3,Valentina Agaeva,Валентина Агаева,1964,62.85,125,77.5,142.5,345,63,SBD,Raw,Open,F,
4,Polina Mashkova,Полина Машкова,2000,61.8,102.5,72.5,160,335,63,SBD,Raw,Open,F,
5,Kristina Kuzmenkova,Кристина Кузьменкова,1990,62.8,132.5,62.5,140,335,63,SBD,Raw,Open,F,
6,Viktoriya Rogozina,Виктория Рогозина,1988,61.4,110,65,155,330,63,SBD,Raw,Open,F,
7,Darya Salnikova,Дарья Сальникова,2000,62.35,120,77.5,130,327.5,63,SBD,Raw,Open,F,
8,Elena Medvedeva,Елена Медведева,1974,62.6,115,62.5,150,327.5,63,SBD,Raw,Open,F,
9,Tatyana Basirova,Татьяна Басирова,1990,63,127.5,80,115,322.5,63,SBD,Raw,Open,F,
10,Kseniya Demchinskaya,Ксения Демчинская,1997,62.85,112.5,70,132.5,315,63,SBD,Raw,Open,F,
11,Larisa Myasnikova,Лариса Мясникова,1965,61,105,72.5,127.5,305,63,SBD,Raw,Open,F,
12,Yana Naseka,Яна Насека,1998,62.85,122.5,55,127.5,305,63,SBD,Raw,Open,F,
13,Anna Bogdanova,Анна Богданова,1974,62.25,105,70,112.5,287.5,63,SBD,Raw,Open,F,
DQ,Olga Petrova,Ольга Петрова,1988,62.3,-110,,,,63,SBD,Raw,Open,F,
1,Kristina Korzhenevskaya,Кристина Корженевская,1999,71.15,140,80,170,390,72,SBD,Raw,Open,F,
2,Yuliya Zaytseva,Юлия Зайцева,1987,67.9,135,95,157.5,387.5,72,SBD,Raw,Open,F,
3,Valeriya Penevskaya,Валерия Пеньевская,1997,63.4,142.5,87.5,142.5,372.5,72,SBD,Raw,Open,F,
4,Natalya Kuznetsova,Наталья Кузнецова,1995,63.95,132.5,77.5,140,350,72,SBD,Raw,Open,F,
5,Alena Gasheva,Алена Гашева,1997,70.45,90,57.5,80,227.5,72,SBD,Raw,Open,F,
DQ,Evgeniya Fedotova,Евгения Федотова,1997,67.8,117.5,67.5,-132.5,,72,SBD,Raw,Open,F,
DQ,Irina Ovsyannikova,Ирина Овсянникова,1971,71.6,-115,,,,72,SBD,Raw,Open,F,
1,Rimma Gaynulina,Римма Гайнулина,1991,72.25,135,87.5,140,362.5,84,SBD,Raw,Open,F,
2,Olga Pavlova,Ольга Павлова,1985,82.8,140,80,130,350,84,SBD,Raw,Open,F,
3,Olga Kuzmova,Ольга Кузьмова,1988,75.65,120,72.5,132.5,325,84,SBD,Raw,Open,F,
1,Stella Abataeva,Стелла Абатаева,1993,95.6,215,142.5,235,592.5,84+,SBD,Raw,Open,F,
2,Alina Kuzminova,Алина Кузьминова,1991,89.9,152.5,80,160,392.5,84+,SBD,Raw,Open,F,
1,Semen Mukovnya,Семен Муковня,1986,58.6,185,117.5,170,472.5,59,SBD,Raw,Open,M,
2,Maksim Borovoy,Максим Боровой,1997,58.88,160,87.5,172.5,420,59,SBD,Raw,Open,M,
3,Dmitriy Matveev,Дмитрий Матвеев,2000,58.48,137.5,100,160,397.5,59,SBD,Raw,Open,M,
4,Vanik Israelyan,Ваник Исраелян,2001,59,132.5,87.5,170,390,59,SBD,Raw,Open,M,
5,Dmitriy Prokofev,Дмитрий Прокофьев,2000,58.98,105,75,120,300,59,SBD,Raw,Open,M,
DQ,Roman Chepakov,Роман Чепаков,1993,58.45,-130,,,,59,SBD,Raw,Open,M,
DQ,Aleksey Suntsov,Алексей Сунцов,1996,58.9,-135,,,,59,SBD,Raw,Open,M,
1,Yuriy Groshnikov,Юрий Грошников,1984,66,212.5,137.5,277.5,627.5,66,SBD,Raw,Open,M,
2,Pavel Cheremin,Павел Черемин,1994,65,190,130,220,540,66,SBD,Raw,Open,M,
3,Sergey Krongauz,Сергей Кронгауз,2000,63.25,160,125,230,515,66,SBD,Raw,Open,M,
4,Artur Arutyunyan,Артур Арутюнян,1991,64.6,150,160,200,510,66,SBD,Raw,Open,M,
5,Aleksandr Pavlov,Александр Павлов,1992,65.2,180,115,215,510,66,SBD,Raw,Open,M,
6,Aleksey Levin,Алексей Левин,1997,66,172.5,112.5,225,510,66,SBD,Raw,Open,M,
7,Vyacheslav Shipovalov,Вячеслав Шиповалов,1995,65.3,177.5,107.5,210,495,66,SBD,Raw,Open,M,
8,Aleksandr Shepel,Александр Шепель,1992,65.95,160,130,200,490,66,SBD,Raw,Open,M,
9,Dmitriy Rozhkov,Дмитрий Рожков,1993,64.15,170,130,180,480,66,SBD,Raw,Open,M,
10,Timofey Belous,Тимофей Белоус,2001,65.05,155,112.5,187.5,455,66,SBD,Raw,Open,M,
11,Vladimir Pashkov,Владимир Пашков,1982,65.4,145,107.5,187.5,440,66,SBD,Raw,Open,M,
12,Aleksey Torba,Алексей Торба,2000,66,147.5,97.5,180,425,66,SBD,Raw,Open,M,
13,Semen Novikov,Семен Новиков,2000,62.65,160,110,150,420,66,SBD,Raw,Open,M,
14,Dmitriy Bykov,Дмитрий Быков,1989,65.45,122.5,90,160,372.5,66,SBD,Raw,Open,M,
DQ,Vladimir Guryanov,Владимир Гурьянов,1989,65.8,187.5,110,-205,,66,SBD,Raw,Open,M,
1,Kirill Nikitin,Кирилл Никитин,1992,74,210,175,230,615,74,SBD,Raw,Open,M,
2,Pavel Prudnikov,Павел Прудников,1988,73.45,200,160,220,580,74,SBD,Raw,Open,M,
3,Andrey Petrov,Андрей Петров,1985,73.15,180,155,225,560,74,SBD,Raw,Open,M,
4,Aleksey Vasilev,Алексей Васильев,1997,74,190,140,230,560,74,SBD,Raw,Open,M,
5,Vyacheslav Muradyan,Вячеслав Мурадян,1992,73.45,187.5,150,210,547.5,74,SBD,Raw,Open,M,
6,Maksim Dunichev,Максим Дуничев,1996,73.8,185,150,210,545,74,SBD,Raw,Open,M,
7,Mikhail Oporkov,Михаил Опорков,1985,73.85,190,125,220,535,74,SBD,Raw,Open,M,
8,Aleksandr Kislyakov,Александр Кисляков,1990,73.35,195,132.5,205,532.5,74,SBD,Raw,Open,M,
9,Sergey Kiyashko,Сергей Кияшко,1991,73.15,175,135,220,530,74,SBD,Raw,Open,M,
10,Aleksey Gava,Алексей Гава,2001,73.45,190,137.5,202.5,530,74,SBD,Raw,Open,M,
11,Dmitriy Fedoseev,Дмитрий Федосеев,1976,73.7,185,130,215,530,74,SBD,Raw,Open,M,
12,Dmitriy Vilchevskiy,Дмитрий Вильчевский,1992,73.85,180,125,225,530,74,SBD,Raw,Open,M,
13,Artem Slepukhin,Артем Слепухин,1981,73.9,175,140,210,525,74,SBD,Raw,Open,M,
14,Evgeniy Evseev,Евгений Евсеев,1986,73.95,185,140,200,525,74,SBD,Raw,Open,M,
15,Stanislav Volskiy,Станислав Вольский,1992,68.8,175,155,190,520,74,SBD,Raw,Open,M,
16,Ivan Myshkin,Иван Мышкин,1988,72.5,180,120,210,510,74,SBD,Raw,Open,M,
17,Valentin Shibaev,Валентин Шибаев,1990,73.65,175,120,215,510,74,SBD,Raw,Open,M,
18,Anton Mokin,Антон Мокин,1997,73.75,170,110,220,500,74,SBD,Raw,Open,M,
19,Sergey Khon,Сергей Хон,1992,71.65,180,130,175,485,74,SBD,Raw,Open,M,
20,Leonid Nozik,Леонид Нозик,1970,73.95,160,130,195,485,74,SBD,Raw,Open,M,
21,Dmitriy Skaromnyy,Дмитрий Скаромный,1997,73.25,165,120,195,480,74,SBD,Raw,Open,M,
22,Vitaliy Borisov,Виталий Борисов,2000,71.9,170,115,190,475,74,SBD,Raw,Open,M,
23,Aleksandr Marmulev,Александр Мармулев,1997,73.95,152.5,115,200,467.5,74,SBD,Raw,Open,M,
24,Aleksandr Efimov,Александр Ефимов,1993,73.55,147.5,102.5,155,405,74,SBD,Raw,Open,M,
1,Roman Chaplygin,Роман Чаплыгин,1987,81.8,250,155,260,665,83,SBD,Raw,Open,M,
2,Vitaliy Sosnin,Виталий Соснин,1993,82.15,245,150,252.5,647.5,83,SBD,Raw,Open,M,
3,Ivan Mikhaylov,Иван Михайлов,1991,82.2,227.5,180,237.5,645,83,SBD,Raw,Open,M,
4,Evgeniy Usov,Евгений Усов,1987,82.65,227.5,155,262.5,645,83,SBD,Raw,Open,M,
5,Dmitriy Troitskiy,Дмитрий Троицкий,1991,81.95,225,165,240,630,83,SBD,Raw,Open,M,
6,Anton Spitsyn,Антон Спицын,1975,82,225,155,250,630,83,SBD,Raw,Open,M,
7,Andrey Matveev,Андрей Матвеев,1992,82.3,220,137.5,272.5,630,83,SBD,Raw,Open,M,
8,Ivan Bondarev,Иван Бондарев,1993,82.55,235,135,260,630,83,SBD,Raw,Open,M,
9,Sergey Biryukov #7,Сергей Бирюков,1988,81.15,210,165,245,620,83,SBD,Raw,Open,M,
10,Andrey Maslov,Андрей Маслов,1995,80.85,217.5,160,235,612.5,83,SBD,Raw,Open,M,
11,Aleksandr Naletov,Александр Налетов,1996,79.85,205,165,240,610,83,SBD,Raw,Open,M,
12,Aleksandr Tkach,Александр Ткач,1985,81.45,215,155,240,610,83,SBD,Raw,Open,M,
13,Nikita Mikhaylov,Никита Михайлов,1996,82.75,215,155,240,610,83,SBD,Raw,Open,M,
14,Artem Shestiperov,Артем Шестиперов,1992,82.85,225,155,230,610,83,SBD,Raw,Open,M,
15,Artem Domenko,Артем Доменко,1991,82.9,205,150,255,610,83,SBD,Raw,Open,M,
16,Kirill Zakatov,Кирилл Закатов,1999,81.45,215,150,237.5,602.5,83,SBD,Raw,Open,M,
17,Aleksey Pogodin,Алексей Погодин,1998,80.85,220,152.5,227.5,600,83,SBD,Raw,Open,M,
18,Kirill Polyakov,Кирилл Поляков,1991,82.9,215,145,240,600,83,SBD,Raw,Open,M,
19,Vladislav Pchelintsev,Владислав Пчелинцев,1992,80.65,200,155,230,585,83,SBD,Raw,Open,M,
20,Pavel Zubakov,Павел Зубаков,1984,82.6,220,145,220,585,83,SBD,Raw,Open,M,
21,Yuriy Pechagin,Юрий Печагин,1986,82.85,210,145,230,585,83,SBD,Raw,Open,M,
22,Aleksandr Galitskiy,Александр Галицкий,1989,81.65,210,150,220,580,83,SBD,Raw,Open,M,
23,Mikhail Ivanov,Михаил Иванов,1989,82.3,200,142.5,230,572.5,83,SBD,Raw,Open,M,
24,Yakov Rubtsov,Яков Рубцов,1996,83,190,137.5,240,567.5,83,SBD,Raw,Open,M,
25,Mikhail Bulba,Михаил Бульба,1982,82.95,197.5,142.5,220,560,83,SBD,Raw,Open,M,
26,Stepan Anosov,Степан Аносов,1989,81.5,200,145,200,545,83,SBD,Raw,Open,M,
27,Andrey Kulgin,Андрей Кулгин,1986,82.6,180,135,220,535,83,SBD,Raw,Open,M,
28,Ivan Kretov,Иван Кретов,1986,80.05,180,125,220,525,83,SBD,Raw,Open,M,
29,Aleksandr Kotov,Александр Котов,1995,81.75,170,140,212.5,522.5,83,SBD,Raw,Open,M,
30,Alikhan Lorsanov,Алихан Лорсанов,1993,82.65,190,125,202.5,517.5,83,SBD,Raw,Open,M,
31,Dmitriy Borodin,Дмитрий Бородин,1990,82.05,190,120,205,515,83,SBD,Raw,Open,M,
32,Mikhail Gredyakin,Михаил Гредякин,1997,82.5,175,125,187.5,487.5,83,SBD,Raw,Open,M,
33,Denis Nikityuk,Денис Никитюк,2001,83,170,110,200,480,83,SBD,Raw,Open,M,
34,Dmitriy Shumilin,Дмитрий Шумилин,1999,82.15,145,130,172.5,447.5,83,SBD,Raw,Open,M,
DQ,Maksim Vidyagin,Максим Видягин,1999,81.2,190,135,-270,,83,SBD,Raw,Open,M,
DQ,Artem Rogozhin,Артем Рогожин,1989,81.75,-225,,,,83,SBD,Raw,Open,M,
DQ,Igor Putilo,Игорь Путило,1986,82.65,-210,,,,83,SBD,Raw,Open,M,
1,Konstantin Ekgardt,Константин Экгардт,1989,89.9,255,185,302.5,742.5,93,SBD,Raw,Open,M,
2,Dmitriy Kashin,Дмитрий Кашин,1988,92.85,265,185,292.5,742.5,93,SBD,Raw,Open,M,
3,Anton Tsvetkov,Антон Цветков,1982,88.4,242.5,192.5,280,715,93,SBD,Raw,Open,M,
4,Aleksey Lupulenko,Алексей Лупуленко,1987,92.35,240,157.5,285,682.5,93,SBD,Raw,Open,M,
5,Nikolay Polyakov,Николай Поляков,1998,90.5,240,150,270,660,93,SBD,Raw,Open,M,
6,Aleksandr Sokolov,Александр Соколов,1984,91.85,230,177.5,252.5,660,93,SBD,Raw,Open,M,
7,Roman Kornev,Роман Корнев,1971,92.4,225,170,265,660,93,SBD,Raw,Open,M,
8,Maksim Shcheglov,Максим Щеглов,1999,87.75,232.5,140,275,647.5,93,SBD,Raw,Open,M,
9,Sergey Savin,Сергей Савин,1981,91.15,220,155,270,645,93,SBD,Raw,Open,M,
10,Rustam Markentevich,Рустам Маркентевич,1996,92.4,245,152.5,247.5,645,93,SBD,Raw,Open,M,
11,Vyacheslav Karpov,Вячеслав Карпов,1985,92.6,230,160,250,640,93,SBD,Raw,Open,M,
12,Dmitriy Vlasov,Дмитрий Власов,1977,93,230,167.5,240,637.5,93,SBD,Raw,Open,M,
13,Dmitriy Vasyukevich,Дмитрий Васюкевич,1980,92.6,220,165,250,635,93,SBD,Raw,Open,M,
14,Maksim Demidov,Максим Демидов,1995,92.7,250,155,230,635,93,SBD,Raw,Open,M,
15,Vasiliy Filatev,Василий Филатьев,1985,93,210,170,250,630,93,SBD,Raw,Open,M,
16,Denis Lukyanchenko,Денис Лукьянченко,1991,90.65,230,155,240,625,93,SBD,Raw,Open,M,
17,Sergey Belskiy,Сергей Бельский,1985,90.2,210,170,240,620,93,SBD,Raw,Open,M,
18,Denis Kallonen,Денис Каллонен,1979,92.15,215,150,245,610,93,SBD,Raw,Open,M,
19,Nikolay Bertov,Николай Бертов,1985,89.6,190,170,240,600,93,SBD,Raw,Open,M,
20,Oleg Rostovskiy,Олег Ростовский,1973,90.3,210,145,245,600,93,SBD,Raw,Open,M,
21,Vitaliy Totoldin,Виталий Тотолдин,1989,93,202.5,147.5,250,600,93,SBD,Raw,Open,M,
22,Yuriy Emelyanov,Юрий Емельянов,1988,91.45,210,160,210,580,93,SBD,Raw,Open,M,
23,Denis Fedyachenko,Денис Федяченко,1989,92.5,220,137.5,215,572.5,93,SBD,Raw,Open,M,
24,Ivan Fedorov,Иван Федоров,1992,92.7,202.5,135,222.5,560,93,SBD,Raw,Open,M,
25,Ivan Prudnikov,Иван Прудников,1991,92.9,190,147.5,212.5,550,93,SBD,Raw,Open,M,
26,Igor Khavronichev,Игорь Хавроничев,1982,92.35,200,137.5,202.5,540,93,SBD,Raw,Open,M,
27,Valentin Larkin,Валентин Ларькин,1986,92.5,192.5,140,207.5,540,93,SBD,Raw,Open,M,
28,Artem Smirnov,Артем Смирнов,1991,92.7,202.5,130,207.5,540,93,SBD,Raw,Open,M,
29,Aleksandr Medvedev,Александр Медведев,1987,88.2,200,130,200,530,93,SBD,Raw,Open,M,
30,Timur Madaminov,Тимур Мадаминов,1994,90.45,182.5,125,220,527.5,93,SBD,Raw,Open,M,
31,Leonid Medovnikov,Леонид Медовников,1994,91.55,175,142.5,195,512.5,93,SBD,Raw,Open,M,
DQ,Linur Musin,Линур Мусин,1995,86.8,230,145,-250,,93,SBD,Raw,Open,M,
DQ,Pavel Nikiforov,Павел Никифоров,1985,92.45,207.5,150,-210,,93,SBD,Raw,Open,M,
DQ,Dmitriy Rumyantsev,Дмитрий Румянцев,1999,89.95,-185,,,,93,SBD,Raw,Open,M,
DQ,Pavel Verolaynen,Павел Веролайнен,1988,92.6,-235,,,,93,SBD,Raw,Open,M,
DQ,Oleg Pechnikov,Олег Печников,1993,,,,,,93,SBD,Raw,Open,M,
1,Artyom Efimov,Артём Ефимов,1990,104.6,325,197.5,355,877.5,105,SBD,Raw,Open,M,
2,Ruslan Kvaratskheliya,Руслан Кварацхелия,1982,100,300,230,280,810,105,SBD,Raw,Open,M,
3,Dmitriy Balabanov,Дмитрий Балабанов,1981,103,280,210,300,790,105,SBD,Raw,Open,M,
4,Artur Mamedyarov,Артур Мамедяров,1991,104.55,250,150,355.5,755.5,105,SBD,Raw,Open,M,
5,Aleksandr Kadzaev,Александр Кадзаев,1990,103.8,275,167.5,312.5,755,105,SBD,Raw,Open,M,
6,Nikolay Gnatyuk,Николай Гнатюк,1987,100.7,270,197.5,285,752.5,105,SBD,Raw,Open,M,
7,Aleksey Tilsh,Алексей Тильш,1998,102.45,282.5,157.5,305,745,105,SBD,Raw,Open,M,
8,Sergey Kondakov,Сергей Кондаков,1995,102,250,175,300,725,105,SBD,Raw,Open,M,
9,Dmitriy Gritsaev,Дмитрий Грицаев,1991,103,255,180,285,720,105,SBD,Raw,Open,M,
10,Nikita Egorov,Никита Егоров,1993,101.8,250,185,275,710,105,SBD,Raw,Open,M,
11,Ivan Lenkin,Иван Ленкин,1992,103.6,252.5,172.5,285,710,105,SBD,Raw,Open,M,
12,Mikhail Kireev,Михаил Киреев,1987,103.35,255,165,280,700,105,SBD,Raw,Open,M,
13,Ivan Asandi,Иван Асанди,1979,94.15,245,172.5,262.5,680,105,SBD,Raw,Open,M,
14,Sergey Razzhivaykin,Сергей Разживайкин,1983,99.05,240,170,270,680,105,SBD,Raw,Open,M,
15,Anatoliy Kuftyrev,Анатолий Куфтырев,1987,104.5,235,185,250,670,105,SBD,Raw,Open,M,
16,Stanislav Podgornyy,Станислав Подгорный,1986,101.6,235,170,260,665,105,SBD,Raw,Open,M,
17,Aleksey Sushkov,Алексей Сушков,1985,104.45,245,175,245,665,105,SBD,Raw,Open,M,
18,Sergey Vologdin,Сергей Вологдин,1991,103.95,235,177.5,247.5,660,105,SBD,Raw,Open,M,
19,Artur Bayron,Артур Байрон,1989,104.6,232.5,162.5,265,660,105,SBD,Raw,Open,M,
20,Vladimir Suk,Владимир Сук,1990,102.5,240,165,250,655,105,SBD,Raw,Open,M,
21,Roman Legchilin,Роман Легчилин,1991,101.75,230,170,250,650,105,SBD,Raw,Open,M,
22,Dmitriy Pchelkin,Дмитрий Пчелкин,1985,103.75,230,160,260,650,105,SBD,Raw,Open,M,
23,Yaroslav Dikun,Ярослав Дикун,1995,104.45,227.5,165,250,642.5,105,SBD,Raw,Open,M,
24,Oleg Ivanov #8,Олег Иванов,1981,103.2,210,160,257.5,627.5,105,SBD,Raw,Open,M,
25,Ivan Sazonov,Иван Сазонов,1989,99.2,235,130,240,605,105,SBD,Raw,Open,M,
26,Vladislav Poddubnyy,Владислав Поддубный,1989,99.8,210,155,220,585,105,SBD,Raw,Open,M,
27,Aleksandr Savin,Александр Савин,1993,103,205,147.5,232.5,585,105,SBD,Raw,Open,M,
28,Roman Tikhonov,Роман Тихонов,1996,104.5,195,147.5,242.5,585,105,SBD,Raw,Open,M,
29,Roman Mazitov,Роман Мазитов,2000,103.5,190,140,245,575,105,SBD,Raw,Open,M,
30,Grigoriy Golyachenko,Григорий Голяченко,1987,99.75,210,135,225,570,105,SBD,Raw,Open,M,
31,Igor Fadeev,Игорь Фадеев,1996,104.15,200,145,220,565,105,SBD,Raw,Open,M,
32,Sergey Banukhin,Сергей Банухин,1985,100.45,225,127.5,200,552.5,105,SBD,Raw,Open,M,
DQ,Roman Gritsaenko,Роман Грицаенко,1978,103.5,240,170,-265,,105,SBD,Raw,Open,M,
DQ,Andrey Strekalovskiy,Андрей Стрекаловский,1983,97.7,190,-150,,,105,SBD,Raw,Open,M,
DQ,Ilya Vasilev,Илья Васильев,1991,103.45,-215,,,,105,SBD,Raw,Open,M,
DQ,Dmitriy Kotsalaynen,Дмитрий Котсалайнен,1977,103.9,-220,,,,105,SBD,Raw,Open,M,
1,Maksim Obroshnikov,Максим Оброшников,1981,112.1,270,220,305,795,120,SBD,Raw,Open,M,
2,Igor Valikovskiy,Игорь Валиковский,1993,119.65,290,165,327.5,782.5,120,SBD,Raw,Open,M,
3,Andrey Dondukov,Андрей Дондуков,1986,116.1,280,190,310,780,120,SBD,Raw,Open,M,
4,Artem Petrov,Артём Петров,1986,117.95,280,205,285,770,120,SBD,Raw,Open,M,
5,Aleksandr Tishov,Александр Тишов,1981,112.75,260,200,300,760,120,SBD,Raw,Open,M,
6,Nikolay Shanin,Николай Шанин,1989,119.75,272.5,205,282.5,760,120,SBD,Raw,Open,M,
7,Igor Lopatin,Игорь Лопатин,1983,113.55,250,205,255,710,120,SBD,Raw,Open,M,
8,Aleksandr Karpov,Александр Карпов,1982,116.85,220,187.5,245,652.5,120,SBD,Raw,Open,M,
DQ,Sergey Kulakov,Сергей Кулаков,1988,117.45,270,-200,,,120,SBD,Raw,Open,M,
DQ,Aleksey Ushakov,Алексей Ушаков,1987,115.3,-230,,,,120,SBD,Raw,Open,M,
1,Vladimir Astratov,Владимир Астратов,1986,160.3,307.5,175,320,802.5,120+,SBD,Raw,Open,M,
2,Dmitriy Dyatko,Дмитрий Дятко,1988,166.5,290,200,305,795,120+,SBD,Raw,Open,M,
3,Maksim Ermolaev,Максим Ермолаев,1981,133.5,240,182.5,245,667.5,120+,SBD,Raw,Open,M,
1,Oksana Ibragimova,Оксана Ибрагимова,1963,47,122.5,67.5,125,315,47,SBD,Single-ply,Open,F,
2,Ralina Muhammadeeva,Ралина Мухаммадиева,1999,47,100,60,130,290,47,SBD,Single-ply,Open,F,
3,Yuliya Luchutenkova,Юлия Лучутенкова,1992,44.84,117.5,57.5,110,285,47,SBD,Single-ply,Open,F,
4,Vera Ivleva,Вера Ивлева,1997,45.12,105,50,120,275,47,SBD,Single-ply,Open,F,
1,Kseniya Poluyakhtova,Ксения Полуяхтова,1997,51.74,145,80,125,350,52,SBD,Single-ply,Open,F,
DQ,Alisa Tarakanova,Алиса Тараканова,1999,51.1,115,-55,,,52,SBD,Single-ply,Open,F,
1,Tatyana Ilyushchenko,Татьяна Ильющенко,1993,55.88,160,80,170,410,57,SBD,Single-ply,Open,F,
2,Yana Levchenko,Яна Левченко,2000,56.72,135,85,132.5,352.5,57,SBD,Single-ply,Open,F,
3,Yana Nasonova,Яна Насонова,2002,55.44,135,72.5,140,347.5,57,SBD,Single-ply,Open,F,
4,Elena Polichuk,Елена Поличук,1962,56.56,122.5,65,120,307.5,57,SBD,Single-ply,Open,F,
1,Olesya Yaroslavtseva,Олеся Ярославцева,1981,58.28,122.5,72.5,160,355,63,SBD,Single-ply,Open,F,
2,Yuliya Pavlova,Юлия Павлова,1999,62.6,140,72.5,125,337.5,63,SBD,Single-ply,Open,F,
DQ,Alyona Alekseeva,Алёна Алексеева,1998,62.1,-145,,,,63,SBD,Single-ply,Open,F,
1,Yuliya Bakhvalova,Юлия Бахвалова,1991,66.7,195,107.5,195,497.5,72,SBD,Single-ply,Open,F,
2,Kristina Korzhenevskaya,Кристина Корженевская,1999,71.25,190,105,175,470,72,SBD,Single-ply,Open,F,
3,Evgeniya Reznik,Евгения Резник,1998,68.7,130,70,120,320,72,SBD,Single-ply,Open,F,
1,Alena Fedorova,Алена Федорова,1975,79.25,170,105,150,425,84,SBD,Single-ply,Open,F,
2,Alena Dunaeva,Алена Дунаева,2002,83.2,140,70,130,340,84,SBD,Single-ply,Open,F,
1,Stella Abataeva,Стелла Абатаева,1993,96.2,235,182.5,220,637.5,84+,SBD,Single-ply,Open,F,
1,Aleksey Kashevarov,Алексей Кашеваров,1998,58.58,140,92.5,150,382.5,59,SBD,Single-ply,Open,M,
2,Aleksey Ezhov,Алексей Ежов,1998,53.92,115,85,175,375,59,SBD,Single-ply,Open,M,
3,Maksim Osotin,Максим Осотин,2002,55.18,145,72.5,135,352.5,59,SBD,Single-ply,Open,M,
1,Aleksandr Kokorkin,Александр Кокоркин,1996,64.5,190,130,180,500,66,SBD,Single-ply,Open,M,
2,Aleksandr Samodelkin,Александр Самоделкин,1980,65.9,155,110,220,485,66,SBD,Single-ply,Open,M,
3,Mikhail Uvarov,Михаил Уваров,2003,65.65,140,112.5,157.5,410,66,SBD,Single-ply,Open,M,
DQ,Nikita Aleksandrov,Никита Александров,1995,65.95,202.5,-100,,,66,SBD,Single-ply,Open,M,
DQ,Aleksandr Pavlov,Александр Павлов,1992,65.84,-230,,,,66,SBD,Single-ply,Open,M,
1,Vitaliy Borisov,Виталий Борисов,2000,71.2,225,152.5,215,592.5,74,SBD,Single-ply,Open,M,
DQ,Anton Egorov,Антон Егоров,1996,72.9,175,-125,,,74,SBD,Single-ply,Open,M,
DQ,Dmitriy Severin,Дмитрий Северин,1989,72.9,225,-150,,,74,SBD,Single-ply,Open,M,
1,Vladimir Yakovlev,Владимир Яковлев,1986,80.65,277.5,212.5,280,770,83,SBD,Single-ply,Open,M,
2,Boris Khovrakh,Борис Ховрах,1986,82.95,305,200,250,755,83,SBD,Single-ply,Open,M,
3,Sergey Serov,Сергей Серов,1981,83,280,190,272.5,742.5,83,SBD,Single-ply,Open,M,
4,Sergey Chumichev,Сергей Чумичев,1986,82.7,290,190,260,740,83,SBD,Single-ply,Open,M,
DQ,Stanislav Poroshin,Станислав Порошин,1997,82.2,245,180,-220,,83,SBD,Single-ply,Open,M,
1,Anvar Bagmanov,Анвар Багманов,1988,90,330,215,290,835,93,SBD,Single-ply,Open,M,
2,Sergey Raznitsyn,Сергей Разницын,1988,92.85,325,225,285,835,93,SBD,Single-ply,Open,M,
3,Nikolay Evseev,Николай Евсеев,1987,92.3,300,205,257.5,762.5,93,SBD,Single-ply,Open,M,
4,Yuriy Tikhov,Юрий Тихов,1983,92.6,280,210,250,740,93,SBD,Single-ply,Open,M,
5,Aleksey Veselov,Алексей Веселов,1988,91.35,150,155,200,505,93,SBD,Single-ply,Open,M,
DQ,Aleksandr Efanov,Александр Ефанов,1991,92.35,-260,,,,93,SBD,Single-ply,Open,M,
DQ,Ivan Fedorov,Иван Федоров,1992,92.45,-220,,,,93,SBD,Single-ply,Open,M,
1,Oleg Titov,Олег Титов,1994,104.25,310,220,270,800,105,SBD,Single-ply,Open,M,
2,Dinislam Kerimov,Динислам Керимов,1991,101.85,290,177.5,265,732.5,105,SBD,Single-ply,Open,M,
3,Pavel Bulygin,Павел Булыгин,1983,99,272.5,180,270,722.5,105,SBD,Single-ply,Open,M,
4,Igor Frolov,Игорь Фролов,1986,102.2,240,195,245,680,105,SBD,Single-ply,Open,M,
5,Igor Milin,Игорь Милин,1990,103.9,220,175,250,645,105,SBD,Single-ply,Open,M,
6,Vladimir Grigorev,Владимир Григорьев,1973,95.95,240,165,227.5,632.5,105,SBD,Single-ply,Open,M,
1,Pavel Matskul,Павел Мацкул,1990,119,330,230,302.5,862.5,120,SBD,Single-ply,Open,M,
2,Maksim Sukhov,Максим Сухов,1974,118.65,320,245,280,845,120,SBD,Single-ply,Open,M,
3,Andrey Morozov,Андрей Морозов,1993,117.75,300,210,250,760,120,SBD,Single-ply,Open,M,
1,Aleksandr Mokeev,Александр Мокеев,1981,144.2,370,270,280,920,120+,SBD,Single-ply,Open,M,
2,Dmitriy Shnurov,Дмитрий Шнуров,1981,135.5,310,252.5,300,862.5,120+,SBD,Single-ply,Open,M,
3,Nikolay Plotnikov,Николай Плотников,1985,134.35,285,200,275,760,120+,SBD,Single-ply,Open,M,
