Name,CyrillicName,BirthYear,BodyweightKg,Best3SquatKg,Best3BenchKg,Best3DeadliftKg,TotalKg,WeightClassKg,Event,Equipment,Division,Sex,BirthDate,Place
Viktoriya Martynova,Виктория Мартынова,1985,46.54,100,85,100,285,47,SBD,Single-ply,Open,F,,1
Aleksandra Suntsova,Александра Сунцова,1998,42.24,102.5,65,97.5,265,47,SBD,Single-ply,Open,F,,2
Ekaterina Zheleznyakova,Екатерина Железнякова,1990,46.24,97.5,47.5,105,250,47,SBD,Single-ply,Open,F,,3
Anzhelika Sudakova,Анжелика Судакова,1995,51.78,120,95,125,340,52,SBD,Single-ply,Open,F,,1
Irina Lobacheva,Ирина Лобачева,1982,51.24,130,70,125,325,52,SBD,Single-ply,Open,F,,2
Darya Petrichenko,Дарья Петриченко,1990,51.76,117.5,62.5,130,310,52,SBD,Single-ply,Open,F,,3
Irina Kuzina,Ирина Кузина,1992,51.08,120,65,120,305,52,SBD,Single-ply,Open,F,,4
Irina Shishigina,Ирина Шишигина,1973,51.52,-125,,,,52,SBD,Single-ply,Open,F,,DQ
Natalya Melnikova,Наталья Мельникова,1992,53,155,95,132.5,382.5,57,SBD,Single-ply,Open,F,,1
Vera Ovtina,Вера Овтина,1994,54.82,155,80,145,380,57,SBD,Single-ply,Open,F,,2
Yuliya Nepryakhina,Юлия Непряхина,1989,55.9,150,70,155,375,57,SBD,Single-ply,Open,F,,3
Elena Lomovskikh,Елена Ломовских,1992,55.12,135,87.5,135,357.5,57,SBD,Single-ply,Open,F,,4
Darya Vakhrameeva,Дарья Вахрамеева,2000,56.08,140,80,120,340,57,SBD,Single-ply,Open,F,,5
Anastasiya Byakina,Анастасия Бякина,1996,57,135,57.5,127.5,320,57,SBD,Single-ply,Open,F,,6
Ekaterina Vinogradova,Екатерина Виноградова,1992,56.32,90,42.5,87.5,220,57,SBD,Single-ply,Open,F,,7
Sofiya Zhmakina,София Жмакина,1997,56.52,140,60,,,57,SBD,Single-ply,Open,F,,DQ
Olga Prokhorova,Ольга Прохорова,1988,55.8,-140,,,,57,SBD,Single-ply,Open,F,,DQ
Ulyana Topilina,Ульяна Топилина,1997,57,-150,,,,57,SBD,Single-ply,Open,F,,DQ
Marina Burmistrova,Марина Бурмистрова,1979,62.4,172.5,112.5,180,465,63,SBD,Single-ply,Open,F,,1
Anna Elizarova,Анна Елизарова,1995,61.14,170,92.5,165,427.5,63,SBD,Single-ply,Open,F,,2
Viktoriya Lebedeva,Виктория Лебедева,1974,62.8,160,117.5,150,427.5,63,SBD,Single-ply,Open,F,,3
Zoya Safarova,Зоя Сафарова,1995,62.76,177.5,85,142.5,405,63,SBD,Single-ply,Open,F,,4
Svetlana Bolshakova,Светлана Большакова,1975,61.76,145,100,150,395,63,SBD,Single-ply,Open,F,,5
Yuliya Karas,Юлия Карась,1987,62.14,155,80,150,385,63,SBD,Single-ply,Open,F,,6
Viktoriya Petrova,Виктория Петрова,1983,61.24,145,80,145,370,63,SBD,Single-ply,Open,F,,7
Larisa Gavrilina,Лариса Гаврилина,1978,62.22,145,75,135,355,63,SBD,Single-ply,Open,F,,8
Darya Elynina,Дарья Елынина,1996,57.15,145,77.5,120,342.5,63,SBD,Single-ply,Open,F,,9
Tatyana Seryozhenko,Татьяна Серёженко,1995,58.06,90,37.5,102.5,230,63,SBD,Single-ply,Open,F,,10
Elena Valieva,Елена Валиева,1978,59.68,125,-80,,,63,SBD,Single-ply,Open,F,,DQ
Viktoriya Vakileva,Виктория Вакилева,1997,60.6,150,-87.5,,,63,SBD,Single-ply,Open,F,,DQ
Galina Kokurina,Галина Кокурина,1997,61.24,145,-77.5,,,63,SBD,Single-ply,Open,F,,DQ
Nataliya Posnikova,Наталия Посникова,1987,68.2,200,90,205,495,72,SBD,Single-ply,Open,F,,1
Svetlana Gorelova,Светлана Горелова,1992,67.15,190,100,180,470,72,SBD,Single-ply,Open,F,,2
Alina Davletshina,Алина Давлетшина,1996,71.1,170,105,155,430,72,SBD,Single-ply,Open,F,,3
Anastasiya Mikhaylova,Анастасия Михайлова,1994,69.1,177.5,82.5,140,400,72,SBD,Single-ply,Open,F,,4
Yuliya Alekseeva,Юлия Алексеева,1993,70.4,147.5,92.5,145,385,72,SBD,Single-ply,Open,F,,5
Ekaterina Trubnikova,Екатерина Трубникова,1985,70.6,150,100,130,380,72,SBD,Single-ply,Open,F,,6
Anastasiya Gubareva,Анастасия Губарева,1984,71.86,170,80,-150,,72,SBD,Single-ply,Open,F,,DQ
Anastasiya Zaytseva,Анастасия Зайцева,1996,71.12,160,80,-150,,72,SBD,Single-ply,Open,F,,DQ
Anastasiya Burkovskaya,Анастасия Бурковская,1993,71.62,-150,,,,72,SBD,Single-ply,Open,F,,DQ
Aziza Begendzhova,Азиза Бегенджова,1992,63.7,-35,,,,72,SBD,Single-ply,Open,F,,DQ
Marina Krapivina,Марина Крапивина,1989,78.1,195,-135,,,84,SBD,Single-ply,Open,F,,DQ
Tatyana Kuksina,Татьяна Куксина,1993,74.4,80,-42.5,,,84,SBD,Single-ply,Open,F,,DQ
Angelina Golikova,Ангелина Голикова,1990,95.1,205,100,170,475,84+,SBD,Single-ply,Open,F,,1
Daria Efimtseva,Дарья Ефимцева,2000,104.7,180,107.5,155,442.5,84+,SBD,Single-ply,Open,F,,2
Kirill Krut,Кирилл Круть,1991,56.15,220,150,232.5,602.5,59,SBD,Single-ply,Open,M,,1
Ruslan Balabanov,Руслан Балабанов,1996,58.98,200,160,210,570,59,SBD,Single-ply,Open,M,,2
Dmitriy Gonchar,Дмитрий Гончар,1994,58.32,170,130,185,485,59,SBD,Single-ply,Open,M,,3
Oleg Dmitrakov,Олег Дмитраков,1999,58.88,130,82.5,150,362.5,59,SBD,Single-ply,Open,M,,4
Andrey Tychinkin,Андрей Тычинкин,1998,53.34,112.5,80,132.5,325,59,SBD,Single-ply,Open,M,,5
Aleksey Kachur,Алексей Качур,2000,58.35,112.5,57.5,145,315,59,SBD,Single-ply,Open,M,,6
Maksim Govorukhin,Максим Говорухин,1999,56.42,105,77.5,130,312.5,59,SBD,Single-ply,Open,M,,7
Maksim Nekrylov,Максим Некрылов,2001,58.3,117.5,52.5,120,290,59,SBD,Single-ply,Open,M,,8
Andrey Ligiza,Андрей Лигиза,1999,58.92,102.5,60,127.5,290,59,SBD,Single-ply,Open,M,,9
Aleksandr Potapov,Александр Потапов,1983,58.96,190,145,-235,,59,SBD,Single-ply,Open,M,,DQ
Dmitriy Yulkov,Дмитрий Юльков,1988,57.94,-175,,,,59,SBD,Single-ply,Open,M,,DQ
Stepan Matveev,Степан Матвеев,1997,64.64,195,-135,,,66,SBD,Single-ply,Open,M,,DQ
Lev Ezhov,Лев Ежов,1989,65.6,180,-135,,,66,SBD,Single-ply,Open,M,,DQ
Pavel Belevantsev,Павел Белеванцев,1983,73.58,300,220,235,755,74,SBD,Single-ply,Open,M,,1
Valeriy Proskurkin,Валерий Проскуркин,1989,73.94,250,180,270,700,74,SBD,Single-ply,Open,M,,2
Aleksandr Koshkin,Александр Кошкин,1983,73.12,260,165,250,675,74,SBD,Single-ply,Open,M,,3
Egor Shumilov,Егор Шумилов,1991,73.76,240,187.5,240,667.5,74,SBD,Single-ply,Open,M,,4
Dmitriy Kislyakov,Дмитрий Кисляков,1997,73.18,242.5,160,235,637.5,74,SBD,Single-ply,Open,M,,5
Artyom Zabelin,Артём Забелин,1990,71.7,270,155,-242.5,,74,SBD,Single-ply,Open,M,,DQ
Nikita Kochergin,Никита Кочергин,1996,73.9,-210,,,,74,SBD,Single-ply,Open,M,,DQ
Valeriy Bakumenko,Валерий Бакуменко,1980,82.76,335,210,295,840,83,SBD,Single-ply,Open,M,,1
Pavel Kashin,Павел Кашин,1990,82.52,320,220,280,820,83,SBD,Single-ply,Open,M,,2
Evgeniy Bogomolov,Евгений Богомолов,1992,82.12,295,200,280,775,83,SBD,Single-ply,Open,M,,3
Evgeniy Pletnyov,Евгений Плетнёв,1982,81.88,265,210,290,765,83,SBD,Single-ply,Open,M,,4
Aleksandr Kokornov,Александр Кокорнов,1964,82.76,290,190,277.5,757.5,83,SBD,Single-ply,Open,M,,5
Ilya Simakov,Илья Симаков,1983,82.38,270,205,272.5,747.5,83,SBD,Single-ply,Open,M,,6
Andrey Sapozhonkov,Андрей Сапожонков,1987,82.9,270,230,247.5,747.5,83,SBD,Single-ply,Open,M,,7
Ivan Fomenko,Иван Фоменко,1987,82.24,287.5,180,260,727.5,83,SBD,Single-ply,Open,M,,8
Anatoliy Stafeev,Анатолий Стафеев,1981,82.76,260,200,265,725,83,SBD,Single-ply,Open,M,,9
Kirill Aseev,Кирилл Асеев,1992,82.5,270,170,282.5,722.5,83,SBD,Single-ply,Open,M,,10
Vitaliy Linkevich,Виталий Линкевич,1988,82.58,287.5,160,275,722.5,83,SBD,Single-ply,Open,M,,11
Andrey Chernousov,Андрей Черноусов,1993,82.14,265,175,275,715,83,SBD,Single-ply,Open,M,,12
Aleksey Kovalenko,Алексей Коваленко,1988,82.2,260,182.5,265,707.5,83,SBD,Single-ply,Open,M,,13
Viktor Frolov,Виктор Фролов,1995,83,270,180,250,700,83,SBD,Single-ply,Open,M,,14
Maksim Golubinov,Максим Голубинов,1984,82.04,240,185,250,675,83,SBD,Single-ply,Open,M,,15
Aleksey Semenyachenko,Алексей Семеняченко,1993,82.14,240,172.5,227.5,640,83,SBD,Single-ply,Open,M,,16
Dmitriy Kushnir,Дмитрий Кушнир,1989,77.7,250,167.5,215,632.5,83,SBD,Single-ply,Open,M,,17
Nikita Potatuev,Никита Потатуев,1987,80.26,220,160,240,620,83,SBD,Single-ply,Open,M,,18
Sergey Yakushevich,Сергей Якушевич,1992,82.74,235,165,220,620,83,SBD,Single-ply,Open,M,,19
Igor Shevtsov,Игорь Шевцов,1983,81.76,227.5,150,230,607.5,83,SBD,Single-ply,Open,M,,20
Aleksey Stepanov,Алексей Степанов,1987,76.56,230,160,210,600,83,SBD,Single-ply,Open,M,,21
Fail Zakirov,Фаиль Закиров,1997,82.44,235,130,220,585,83,SBD,Single-ply,Open,M,,22
Nikita Chernov,Никита Чернов,1999,79.9,230,135,217.5,582.5,83,SBD,Single-ply,Open,M,,23
Daniil Nemov,Даниил Немов,1998,81.36,227.5,115,240,582.5,83,SBD,Single-ply,Open,M,,24
Aleksey Kuzichkin,Алексей Кузичкин,1984,76.56,225,140,205,570,83,SBD,Single-ply,Open,M,,25
Aleksandr Demchenko,Александр Демченко,1988,80.5,215,132.5,222.5,570,83,SBD,Single-ply,Open,M,,26
Ivan Belov,Иван Белов,1982,80.3,212.5,150,175,537.5,83,SBD,Single-ply,Open,M,,27
Ilya Demin,Илья Демин,1998,79.5,160,110,180,450,83,SBD,Single-ply,Open,M,,28
Andrey Solovyov,Андрей Соловьёв,1982,82.26,287.5,-175,,,83,SBD,Single-ply,Open,M,,DQ
Andrey Muravyov,Андрей Муравьёв,1994,82.5,285,-180,,,83,SBD,Single-ply,Open,M,,DQ
Konstantin Goryunov,Константин Горюнов,1985,81.12,-280,,,,83,SBD,Single-ply,Open,M,,DQ
Kirill Fomichyov,Кирилл Фомичёв,1992,80.86,252.5,,,,83,SBD,Single-ply,Open,M,,DQ
Vladimir Kovalchuk,Владимир Ковальчук,1986,92.5,322.5,227.5,310,860,93,SBD,Single-ply,Open,M,,1
Dmitriy Kashin,Дмитрий Кашин,1988,92.88,320,237.5,292.5,850,93,SBD,Single-ply,Open,M,,2
Dmitriy Nikultsev,Дмитрий Никульцев,1989,92.72,290,247.5,302.5,840,93,SBD,Single-ply,Open,M,,3
Aleksey Agafoshin,Алексей Агафошин,1997,90.96,307.5,225,290,822.5,93,SBD,Single-ply,Open,M,,4
Anton Zinatullin,Антон Зинатуллин,1994,91.94,310,210,300,820,93,SBD,Single-ply,Open,M,,5
Pavel Bondarev,Павел Бондарев,1988,92.94,320,220,280,820,93,SBD,Single-ply,Open,M,,7
Ilya Golubev,Илья Голубев,1994,91.78,305,210,300,815,93,SBD,Single-ply,Open,M,,8
Stanislav Vishnyakov,Станислав Вишняков,1976,92.18,302.5,202.5,302.5,807.5,93,SBD,Single-ply,Open,M,,9
Aleksey Rogozhin,Алексей Рогожин,1994,90.54,315,200,290,805,93,SBD,Single-ply,Open,M,,10
Aleksandr Novozhilov,Александр Новожилов,1972,92.22,297.5,227.5,275,800,93,SBD,Single-ply,Open,M,,11
Konstantin Ermolaev,Константин Ермолаев,1984,92.4,310,225,265,800,93,SBD,Single-ply,Open,M,,12
Shaykhmagomed Khamzatov,Шайхмагомед Хамзатов,1988,92.7,320,190,280,790,93,SBD,Single-ply,Open,M,,13
Ruslan Shipitsin,Руслан Шипицин,1992,92,290,185,312.5,787.5,93,SBD,Single-ply,Open,M,,14
Vitaliy Marin,Виталий Марьин,1988,92.16,275,205,292.5,772.5,93,SBD,Single-ply,Open,M,,15
Andrey Kolchenogov,Андрей Колченогов,1985,92.1,285,185,295,765,93,SBD,Single-ply,Open,M,,16
Vitaliy Shamonin,Виталий Шамонин,1985,92.1,315,190,250,755,93,SBD,Single-ply,Open,M,,17
Mikhail Matveev,Михаил Матвеев,1994,92.24,272.5,202.5,270,745,93,SBD,Single-ply,Open,M,,18
Vladimir Bukachyov,Владимир Букачёв,1967,88.66,270,190,280,740,93,SBD,Single-ply,Open,M,,19
Mikhail Dindikov,Михаил Диндиков,1989,92.02,287.5,190,260,737.5,93,SBD,Single-ply,Open,M,,20
Roman Babkin,Роман Бабкин,1985,91.8,290,165,280,735,93,SBD,Single-ply,Open,M,,21
Aleksandr Zhidkov,Александр Жидков,1994,91.1,285,175,270,730,93,SBD,Single-ply,Open,M,,22
Aleksey Polyakov,Алексей Поляков,1993,87.14,300,180,230,710,93,SBD,Single-ply,Open,M,,23
Dmitriy Sharov,Дмитрий Шаров,1996,91.34,275,165,240,680,93,SBD,Single-ply,Open,M,,24
Ivan Moskalionov,Иван Москалионов,1997,83.54,270,145,250,665,93,SBD,Single-ply,Open,M,,25
Mikhail Agaltsov,Михаил Агальцов,1996,86.7,260,145,260,665,93,SBD,Single-ply,Open,M,,26
Denis Korshunov,Денис Коршунов,1982,84.8,230,200,230,660,93,SBD,Single-ply,Open,M,,27
Rustam Mamedov,Рустам Мамедов,1987,90.1,230,185,230,645,93,SBD,Single-ply,Open,M,,28
Pavel Sorokin,Павел Сорокин,1989,92.26,250,192.5,190,632.5,93,SBD,Single-ply,Open,M,,29
Denis Klimov,Денис Климов,1978,88.56,230,160,220,610,93,SBD,Single-ply,Open,M,,30
Ruslan Kurbanov,Руслан Курбанов,1998,86.08,210,115,205,530,93,SBD,Single-ply,Open,M,,31
Nikolay Slavskiy,Николай Славский,1985,90.68,175,120,195,490,93,SBD,Single-ply,Open,M,,32
Andrey Goncharov,Андрей Гончаров,1995,92.28,172.5,115,170,457.5,93,SBD,Single-ply,Open,M,,33
Vladimir Fyodorov,Владимир Фёдоров,1998,84,160,105,180,445,93,SBD,Single-ply,Open,M,,34
Evgeniy Zaytsev,Евгений Зайцев,1987,92.44,330,215,275,820,93,SBD,Single-ply,Open,M,,6
Aleksey Semyonov,Алексей Семёнов,1985,92.54,332.5,187.5,-285,,93,SBD,Single-ply,Open,M,,DQ
Akob Sargsyan,Акоб Саргсян,1989,91.38,305,185,-322.5,,93,SBD,Single-ply,Open,M,,DQ
Mikhail Chasovskoy,Михаил Часовской,1991,91.1,305,190,-285,,93,SBD,Single-ply,Open,M,,DQ
Akhmet Kurbanov,Ахмет Курбанов,1992,88.16,310,-225,,,93,SBD,Single-ply,Open,M,,DQ
Dmitriy Pavlov,Дмитрий Павлов,1995,92.44,312.5,-200,,,93,SBD,Single-ply,Open,M,,DQ
Vadim Shumilov,Вадим Шумилов,1976,92.56,260,-220,,,93,SBD,Single-ply,Open,M,,DQ
Araik Bagdasaryan,Араик Багдасарян,1988,90.5,280,-180,,,93,SBD,Single-ply,Open,M,,DQ
Pyotr Ustinov,Пётр Устинов,1988,91.38,280,-180,,,93,SBD,Single-ply,Open,M,,DQ
Roman Krechetov,Роман Кречетов,1977,92.82,-305,,,,93,SBD,Single-ply,Open,M,,DQ
Anatoliy Belov,Анатолий Белов,1988,86.56,-275,,,,93,SBD,Single-ply,Open,M,,DQ
Vladimir Pronin,Владимир Пронин,1983,101.25,355,210,317.5,882.5,105,SBD,Single-ply,Open,M,,1
Aleksandr Shabrov,Александр Шабров,1991,96.44,337.5,227.5,295,860,105,SBD,Single-ply,Open,M,,2
Igor Onuchin,Игорь Онучин,1988,103.1,350,205,300,855,105,SBD,Single-ply,Open,M,,3
Roman Bondysev,Роман Бондысев,1998,99.32,340,205,300,845,105,SBD,Single-ply,Open,M,,4
David Sablin,Давид Саблин,1989,103.12,335,215,292.5,842.5,105,SBD,Single-ply,Open,M,,5
Konstantin Karlov,Константин Карлов,1980,99.04,335,215,290,840,105,SBD,Single-ply,Open,M,,6
Andrey Yashin,Андрей Яшин,1992,103.74,310,230,295,835,105,SBD,Single-ply,Open,M,,7
Valeriy Zhurov,Валерий Журов,1979,98.38,315,225,285,825,105,SBD,Single-ply,Open,M,,8
Aleksandr Tokarev,Александр Токарев,1972,103.32,280,245,290,815,105,SBD,Single-ply,Open,M,,9
Dmitriy Solovyov,Дмитрий Соловьёв,1983,103.86,300,210,305,815,105,SBD,Single-ply,Open,M,,10
Fyodor Karpenko,Фёдор Карпенко,1984,102.6,300,220,280,800,105,SBD,Single-ply,Open,M,,11
Valeriy Gavrikov,Валерий Гавриков,1990,103,300,220,280,800,105,SBD,Single-ply,Open,M,,12
Aleksandr Nikolaev,Александр Николаев,1990,99.6,265,225,305,795,105,SBD,Single-ply,Open,M,,13
Eduard Golubov,Эдуард Голубов,1991,103.06,300,205,290,795,105,SBD,Single-ply,Open,M,,14
Valeriy Karlov,Валерий Карлов,1979,104.16,305,227.5,262.5,795,105,SBD,Single-ply,Open,M,,15
Anton Aleksenko,Антон Алексенко,1993,104.38,320,200,270,790,105,SBD,Single-ply,Open,M,,16
Rustam Meniakhmetov,Рустам Мениахметов,1983,99,315,210,260,785,105,SBD,Single-ply,Open,M,,17
Vladimir Balandin,Владимир Баландин,1975,96.68,300,215,250,765,105,SBD,Single-ply,Open,M,,18
Dmitriy Makarov,Дмитрий Макаров,1984,101.68,305,180,280,765,105,SBD,Single-ply,Open,M,,19
Andrey Pavlov #10,Андрей Павлов,1980,101.6,300,190,265,755,105,SBD,Single-ply,Open,M,,20
Oleg Miloserdov,Олег Милосердов,1978,103.2,250,185,245,680,105,SBD,Single-ply,Open,M,,21
Evgeniy Ivannikov,Евгений Иванников,1973,103.8,250,165,255,670,105,SBD,Single-ply,Open,M,,22
Aleksandr Kinev,Александр Кинев,1984,99.9,235,175,235,645,105,SBD,Single-ply,Open,M,,23
Dmitriy Bakharev,Дмитрий Бахарев,1995,95.7,215,170,230,615,105,SBD,Single-ply,Open,M,,24
Maksim Korotkov,Максим Коротков,1987,103.4,325,210,-280,,105,SBD,Single-ply,Open,M,,DQ
Artyom Belov,Артём Белов,1982,103.9,300,220,-280,,105,SBD,Single-ply,Open,M,,DQ
Aleksey Shestakov,Алексей Шестаков,1984,100.56,370,-260,,,105,SBD,Single-ply,Open,M,,DQ
Denis Shichkov,Денис Шичков,1982,101.6,337.5,-210,,,105,SBD,Single-ply,Open,M,,DQ
Andrey Kulminskiy,Андрей Кульминский,1970,101.9,305,-212.5,,,105,SBD,Single-ply,Open,M,,DQ
Vladimir Selin,Владимир Селин,1977,103.2,280,-215,,,105,SBD,Single-ply,Open,M,,DQ
Igor Kalashnikov,Игорь Калашников,1977,104.2,290,-240,,,105,SBD,Single-ply,Open,M,,DQ
Aleksey Apostolov,Алексей Апостолов,1986,99.48,-240,,,,105,SBD,Single-ply,Open,M,,DQ
Aleksey Egorov,Алексей Егоров,1989,117.94,365,262.5,305,932.5,120,SBD,Single-ply,Open,M,,1
Vladimir Kuvaev,Владимир Куваев,1980,113.44,350,262.5,315,927.5,120,SBD,Single-ply,Open,M,,2
Evgeniy Anikanov,Евгений Аниканов,1988,113.1,340,265,320,925,120,SBD,Single-ply,Open,M,,3
Dmitriy Filnev,Дмитрий Фильнев,1981,115.58,330,240,315,885,120,SBD,Single-ply,Open,M,,4
Vladimir Khryapin,Владимир Хряпин,1990,116.8,330,260,290,880,120,SBD,Single-ply,Open,M,,5
Dmitriy Kalistratov,Дмитрий Калистратов,1997,113.56,320,250,290,860,120,SBD,Single-ply,Open,M,,6
Aleksandr Muratkin,Александр Мураткин,1985,108.94,310,225,320,855,120,SBD,Single-ply,Open,M,,7
Pavel Bakharev,Павел Бахарев,1991,106.72,315,215,320,850,120,SBD,Single-ply,Open,M,,8
Dmitriy Solovyov,Дмитрий Соловьёв,1986,115.42,335,215,300,850,120,SBD,Single-ply,Open,M,,9
Nikita Vavilov,Никита Вавилов,1994,117.94,320,245,285,850,120,SBD,Single-ply,Open,M,,10
Artyom Evteryov,Артём Евтерёв,1987,110.96,327.5,230,277.5,835,120,SBD,Single-ply,Open,M,,11
Nikita Semyonov,Никита Семёнов,1993,112.1,305,215,315,835,120,SBD,Single-ply,Open,M,,12
Artyom Milashevskiy,Артём Милашевский,1983,112.36,305,225,305,835,120,SBD,Single-ply,Open,M,,13
Dmitriy Ostoyach,Дмитрий Остояч,1993,116.22,315,195,310,820,120,SBD,Single-ply,Open,M,,14
Siddik Batsaev,Сиддик Бацаев,1988,115.3,320,220,275,815,120,SBD,Single-ply,Open,M,,15
Aleksey Lubov,Алексей Лубов,1990,115.66,290,240,280,810,120,SBD,Single-ply,Open,M,,16
Vilgem Nakhatakyan,Вильгем Нахатакян,1992,117.5,297.5,225,285,807.5,120,SBD,Single-ply,Open,M,,17
Igor Eltsov,Игорь Ельцов,1978,118.3,285,210,300,795,120,SBD,Single-ply,Open,M,,18
Konstantin Baranov,Константин Баранов,1986,118.26,325,190,275,790,120,SBD,Single-ply,Open,M,,19
Evgeniy Tysyachnyuk,Евгений Тысячнюк,1990,115.6,295,185,275,755,120,SBD,Single-ply,Open,M,,20
Roman Belousov,Роман Белоусов,1983,114.12,290,175,260,725,120,SBD,Single-ply,Open,M,,21
Mikhail Chalykh,Михаил Чалых,1978,118.48,335,-230,,,120,SBD,Single-ply,Open,M,,DQ
Dmitriy Andrianov,Дмитрий Андрианов,1988,112.04,-360,,,,120,SBD,Single-ply,Open,M,,DQ
Dmitriy Shnurov,Дмитрий Шнуров,1981,118.26,-310,,,,120,SBD,Single-ply,Open,M,,DQ
Anton Solodov,Антон Солодов,1985,152,462.5,270,367.5,1100,120+,SBD,Single-ply,Open,M,,1
Magomet-Salakh Edilkhanov,Магомет-Салах Эдилханов,1991,143.12,360,265,285,910,120+,SBD,Single-ply,Open,M,,2
Akim Shirobokov,Аким Широбоков,1975,125.24,340,220,320,880,120+,SBD,Single-ply,Open,M,,3
Aleksey Konovalov,Алексей Коновалов,1992,134.7,330,215,315,860,120+,SBD,Single-ply,Open,M,,4
Nikolay Bykov,Николай Быков,1976,129.44,320,225,275,820,120+,SBD,Single-ply,Open,M,,5
Georgiy Darchiev,Георгий Дарчиев,1976,138,265,235,280,780,120+,SBD,Single-ply,Open,M,,6
Anastasiya Polivanova,Анастасия Поливанова,1993,44.96,77.5,60,117.5,255,47,SBD,Raw,Open,F,,1
Elena Arbuzova,Елена Арбузова,1983,52,90,55,125,270,52,SBD,Raw,Open,F,,1
Irina Kuzina,Ирина Кузина,1992,51.72,97.5,55,107.5,260,52,SBD,Raw,Open,F,,2
Anastasiya Kiselyova,Анастасия Киселёва,1993,51.56,70,40,85,195,52,SBD,Raw,Open,F,,3
Anastasiya Sled,Анастасия Следь,1985,56.98,137.5,97.5,165,400,57,SBD,Raw,Open,F,,1
Evgeniya Goncharova,Евгения Гончарова,1981,63,140,87.5,190,417.5,63,SBD,Raw,Open,F,,1
Natalya Kruchinina,Наталья Кручинина,1992,62.68,100,67.5,110,277.5,63,SBD,Raw,Open,F,,2
Klavdiya Strelnikova,Клавдия Стрельникова,1992,60.26,90,47.5,110,247.5,63,SBD,Raw,Open,F,,3
Nataliya Posnikova,Наталия Посникова,1987,68.55,150,92.5,160,402.5,72,SBD,Raw,Open,F,,1
Margarita Kashirina,Маргарита Каширина,1992,65.38,115,62.5,150,327.5,72,SBD,Raw,Open,F,,2
Anastasiya Makhaeva,Анастасия Махаева,1993,67.7,100,55,115,270,72,SBD,Raw,Open,F,,3
Mariya Volkova,Мария Волкова,1972,72.05,162.5,112.5,155,430,84,SBD,Raw,Open,F,,1
Alyona Savina,Алёна Савина,1983,84,160,100,160,420,84,SBD,Raw,Open,F,,2
Anna Zykova,Анна Зыкова,1994,77.5,100,65,127.5,292.5,84,SBD,Raw,Open,F,,3
Dmitriy Gonchar,Дмитрий Гончар,1994,58.64,132.5,100,167.5,400,59,SBD,Raw,Open,M,,1
Dmitriy Yulkov,Дмитрий Юльков,1988,58.84,120,80,145,345,59,SBD,Raw,Open,M,,2
Aleksey Gorelkin,Алексей Горелкин,1991,58.32,120,87.5,115,322.5,59,SBD,Raw,Open,M,,3
Denis Gromov,Денис Громов,1984,74,195,132.5,230,557.5,74,SBD,Raw,Open,M,,1
Evgeniy Gaybura,Евгений Гайбура,1995,73.12,210,130,215,555,74,SBD,Raw,Open,M,,2
Vasiliy Gorichev,Василий Горичев,1992,72.92,160,100,190,450,74,SBD,Raw,Open,M,,3
Timur Pereverzin,Тимур Переверзин,1993,73.02,152.5,117.5,170,440,74,SBD,Raw,Open,M,,4
Andrey Muravyov,Андрей Муравьёв,1994,82.96,240,160,270,670,83,SBD,Raw,Open,M,,1
Vyacheslav Nikadimov,Вячеслав Никадимов,1987,82.74,220,167.5,250,637.5,83,SBD,Raw,Open,M,,2
Akhmet Kurbanov,Ахмет Курбанов,1992,82.48,210,140,245,595,83,SBD,Raw,Open,M,,3
Stanislav Melnikov,Станислав Мельников,1990,79.02,200,142.5,200,542.5,83,SBD,Raw,Open,M,,4
Aleksey Volkov,Алексей Волков,1994,81.6,190,135,200,525,83,SBD,Raw,Open,M,,5
Boris Shchenev,Борис Щенев,1990,81.88,160,115,170,445,83,SBD,Raw,Open,M,,6
Dantsan Zhamsoev,Данцан Жамсоев,1988,80.88,125,127.5,165,417.5,83,SBD,Raw,Open,M,,7
Aleksandr Shpak,Александр Шпак,1980,92.52,265,192.5,270,727.5,93,SBD,Raw,Open,M,,1
Oleg Sumenkov,Олег Суменков,1992,87.18,247.5,200,270,717.5,93,SBD,Raw,Open,M,,2
Stanislav Vishnyakov,Станислав Вишняков,1976,93,230,170,280,680,93,SBD,Raw,Open,M,,3
Denis Boyko,Денис Бойко,1991,86.8,195,140,305,640,93,SBD,Raw,Open,M,,4
Pavel Barkanov,Павел Барканов,1993,87.4,220,155,250,625,93,SBD,Raw,Open,M,,5
Vladimir Kolotvin,Владимир Колотвин,1987,91.58,220,130,260,610,93,SBD,Raw,Open,M,,6
Artyom Andronov,Артём Андронов,1988,87.94,190,165,250,605,93,SBD,Raw,Open,M,,7
Ilya Ershov,Илья Ершов,1988,92.86,200,165,230,595,93,SBD,Raw,Open,M,,8
Aleksandr Matskevich,Александр Мацкевич,1988,90.3,175,147.5,252.5,575,93,SBD,Raw,Open,M,,9
Dmitriy Mishenin,Дмитрий Мишенин,1986,89.76,150,130,195,475,93,SBD,Raw,Open,M,,10
Andrey Akhromeev,Андрей Ахромеев,1996,85.2,180,120,170,470,93,SBD,Raw,Open,M,,11
Sergey Kachan,Сергей Качан,1992,90.5,-210,,,,93,SBD,Raw,Open,M,,DQ
Denis Grebnev,Денис Гребнев,1986,104.8,230,230,285,745,105,SBD,Raw,Open,M,,1
Maksim Kudaev,Максим Кудаев,1991,99.48,247.5,165,270,682.5,105,SBD,Raw,Open,M,,2
Roman Razboev,Роман Разбоев,1992,104.65,252.5,170,250,672.5,105,SBD,Raw,Open,M,,3
Murat Umalatov,Мурат Умалатов,1982,101.88,250,170,250,670,105,SBD,Raw,Open,M,,4
Maksim Lutsenko,Максим Луценко,1975,102.42,212.5,175,280,667.5,105,SBD,Raw,Open,M,,5
Andrey Kiktenko,Андрей Киктенко,1969,102.54,215,200,250,665,105,SBD,Raw,Open,M,,6
Evgeniy Aleshin,Евгений Алешин,1989,99.6,230,175,215,620,105,SBD,Raw,Open,M,,7
Aleksandr Lipatov,Александр Липатов,1976,117.02,330,215,340,885,120,SBD,Raw,Open,M,,1
Sergey Kosarev,Сергей Косарев,1980,114,315,232.5,305,852.5,120,SBD,Raw,Open,M,,2
Mikhail Verbenkin,Михаил Вербенкин,1980,119.24,280,192.5,300,772.5,120,SBD,Raw,Open,M,,3
Sergey Shishkin,Сергей Шишкин,1972,118.28,250,197.5,310,757.5,120,SBD,Raw,Open,M,,4
Dmitriy Chizhov,Дмитрий Чижов,1979,114.72,260,192.5,275,727.5,120,SBD,Raw,Open,M,,5
Anton Ezhov,Антон Ежов,1987,117.52,265,160,270,695,120,SBD,Raw,Open,M,,6
Aleksey Kotov,Алексей Котов,1980,120.96,295,170,272.5,737.5,120+,SBD,Raw,Open,M,,1
Andrey Enduraev,Андрей Ендураев,1976,121.22,245,170,305,720,120+,SBD,Raw,Open,M,,2
Aleksey Podgorbunskiy,Алексей Подгорбунский,1992,145.4,250,180,270,700,120+,SBD,Raw,Open,M,,3
