Tested,Equipment,Place,Name,Division,BirthYear,BodyweightKg,Squat1Kg,Squat2Kg,Squat3Kg,Best3SquatKg,Bench1Kg,Bench2Kg,Bench3Kg,Best3BenchKg,Bench4Kg,Deadlift1Kg,Deadlift2Kg,Deadlift3Kg,Best3DeadliftKg,TotalKg,WeightClassKg,Sex,CyrillicName,Event
Yes,Raw,1,Aleksandra Sovkova,Amateur Juniors 20-23,1988,55.2,60,65,70,70,40,45,47.5,47.5,,80,85,90,90,207.5,56,F,Александра Совкова,SBD
Yes,Raw,1,Aleksandra Abramova,Amateur Open,1980,54.5,-75,75,-80,75,55,-60,60,60,,110,115,-117.5,115,250,56,F,Александра Абрамова,SBD
Yes,Raw,2,Mariya Yultsova,Amateur Open,1982,55.2,55,60,65,65,35,40,-42.5,40,,85,90,92.5,92.5,197.5,56,F,Мария Юльцова,SBD
Yes,Raw,DQ,Ekaterina Sukhoverkova,Amateur Open,1973,54.8,100,-110,-115,100,-67.5,-67.5,-67.5,,,-120,,,,,56,F,Екатерина Суховеркова,SBD
Yes,Raw,1,Valentina Chelysheva,Amateur Open,1983,58.8,-70,70,,70,45,47.5,,47.5,,85,90,95,95,212.5,60,F,Валентина Челышева,SBD
Yes,Raw,1,Karina Galeeva,Amateur Open,1981,63.8,55,60,-65,60,40,-45,47.5,47.5,,70,-80,80,80,187.5,67.5,F,Карина Галеева,SBD
Yes,Raw,DQ,Galina Kalinina,Amateur Open,1981,67,-110,-115,-115,,-62.5,,,,,-140,,,,,67.5,F,Галина Калинина,SBD
Yes,Raw,1,Nina Biryukova,Amateur Open,1971,74.2,85,95,100,100,62.5,67.5,70,70,,115,125,130,130,300,75,F,Нина Бирюкова,SBD
Yes,Raw,1,Irina Borisova,Amateur Open,1987,79.1,50,60,70,70,40,-45,-45,40,,75,85,-95,85,195,82.5,F,Ирина Борисова,SBD
Yes,Raw,1,Anton Grafov,Amateur Teen,1997,55.5,-100,100,110,110,-80,80,85,85,,120,125,130,130,325,56,M,Антон Графов,SBD
Yes,Raw,1,Sergey Olenichenko,Amateur Teen,1994,66.1,125,130,135,135,85,90,-95,90,,150,160,-172.5,160,385,67.5,M,Сергей Олениченко,SBD
Yes,Raw,1,Roman Postnikov,Amateur Teen,1992,65.8,140,150,155,155,85,-90,90,90,,170,180,190,190,435,67.5,M,Роман Постников,SBD
Yes,Raw,2,Andrey Aksyuta,Amateur Teen,1994,62.5,90,100,110,110,80,85,-90,85,,130,145,-150,145,340,67.5,M,Андрей Аксюта,SBD
Yes,Raw,1,Maksim Popov #15,Amateur Juniors 20-23,1991,64.6,105,-110,110,110,65,-70,-70,65,,125,135,-147.5,135,310,67.5,M,Максим Попов,SBD
Yes,Raw,1,Aleksandr Savitskiy,Amateur Juniors 20-23,1990,73.3,170,180,187.5,187.5,100,-112.5,112.5,112.5,,190,200,212.5,212.5,512.5,75,M,Александр Савицкий,SBD
Yes,Raw,2,Aleksandr Titov,Amateur Juniors 20-23,1990,71.9,130,-140,-140,130,-107.5,107.5,-110,107.5,,-185,185,197.5,197.5,435,75,M,Александр Титов,SBD
Yes,Raw,3,Andrey Sedykh,Amateur Juniors 20-23,1989,74.9,130,140,145,145,80,90,-100,90,,-160,-170,180,180,415,75,M,Андрей Седых,SBD
Yes,Raw,1,Nikolay Balugin,Amateur Open,1987,73.6,180,-185,-185,180,120,125,127.5,127.5,,220,225,-230,225,532.5,75,M,Николай Балугин,SBD
Yes,Raw,DQ,Vladimir Kulakov,Amateur Open,1955,74.1,-100,,,,-90,,,,,-120,,,,,75,M,Владимир Кулаков,SBD
Yes,Raw,1,Vladimir Kulakov,Amateur Masters 55-59,1955,74.1,100,105,,105,90,95,,95,,120,130,,130,330,75,M,Владимир Кулаков,SBD
Yes,Raw,1,Vladislav Naumov,Amateur Teen,1994,79.6,145,-152.5,160,160,107.5,112.5,117.5,117.5,,180,190,200,200,477.5,82.5,M,Владислав Наумов,SBD
Yes,Raw,1,Aleksandr Kurtsaev,Amateur Juniors 20-23,1989,81.3,-170,-170,170,170,-120,120,-130,120,,200,210,220,220,510,82.5,M,Александр Курцаев,SBD
Yes,Raw,2,Aleksandr Shabrov,Amateur Juniors 20-23,1991,77.2,160,170,-175,170,115,122.5,-125,122.5,,190,200,210,210,502.5,82.5,M,Александр Шабров,SBD
Yes,Raw,3,Aleksandr Kosterev,Amateur Juniors 20-23,1991,81,-160,160,-170,160,-110,110,-115,110,,160,170,-180,170,440,82.5,M,Александр Костерев,SBD
Yes,Raw,DQ,Dmitriy Chuzhakov,Amateur Juniors 20-23,1989,77.7,-160,-160,-160,,-105,,,,,-165,,,,,82.5,M,Дмитрий Чужаков,SBD
Yes,Raw,1,Aleksey Kraynichuk,Amateur Open,1988,81.7,205,-215,-215,205,150,-157.5,-157.5,150,,237.5,245,-257.5,245,600,82.5,M,Алексей Крайничук,SBD
Yes,Raw,2,Aleksey Koshuba,Amateur Open,1980,82.3,170,180,-185,180,110,115,120,120,,210,220,225,225,525,82.5,M,Алексей Кошуба,SBD
Yes,Raw,3,Boris Nikiforov,Amateur Open,1985,81.8,140,150,-160,150,-110,115,120,120,,160,175,-190,175,445,82.5,M,Борис Никифоров,SBD
Yes,Raw,4,Anatoliy Rylov,Amateur Open,1986,78.3,135,-142.5,145,145,95,102.5,-107.5,102.5,,160,175,-190,175,422.5,82.5,M,Анатолий Рылов,SBD
Yes,Raw,1,Evgeniy Zhurkin,Amateur Masters 65-69,1945,80,105,112.5,,112.5,85,-90,92.5,92.5,,125,137.5,145,145,350,82.5,M,Евгений Журкин,SBD
Yes,Raw,1,Dmitriy Bogdanov,Amateur Teen,1992,89.9,180,200,207.5,207.5,117.5,-122.5,-122.5,117.5,,210,-222.5,222.5,222.5,547.5,90,M,Дмитрий Богданов,SBD
Yes,Raw,1,Artemiy Kukoev,Amateur Juniors 20-23,1991,87.4,180,185,-187.5,185,125,127.5,130,130,,220,232.5,235,235,550,90,M,Артемий Кукоев,SBD
Yes,Raw,2,Anatoliy Eremin,Amateur Juniors 20-23,1991,89.4,175,-185,187.5,187.5,140,147.5,152.5,152.5,,190,-207.5,207.5,207.5,547.5,90,M,Анатолий Еремин,SBD
Yes,Raw,3,Nikita Zotov,Amateur Juniors 20-23,1989,86.4,145,155,165,165,110,115,-120,115,,170,185,195,195,475,90,M,Никита Зотов,SBD
Yes,Raw,4,Maksim Pechenkin,Amateur Juniors 20-23,1989,85.8,-135,-140,140,140,95,-105,105,105,,160,-180,-180,160,405,90,M,Максим Печенкин,SBD
Yes,Raw,1,Aleksey Garanin,Amateur Open,1978,87.5,230,240,250,250,180,190,192.5,192.5,,250,262.5,270,270,712.5,90,M,Алексей Гаранин,SBD
Yes,Raw,2,Sergey Kolotvin,Amateur Open,1985,90,-217.5,222.5,230,230,180,190,195,195,,270,282.5,-290,282.5,707.5,90,M,Сергей Колотвин,SBD
Yes,Raw,3,Konstantin Zhekov,Amateur Open,1972,87,-180,-190,190,190,132.5,140,-145,140,,210,217.5,225,225,555,90,M,Константин Жеков,SBD
Yes,Raw,4,Sergey Zubkov,Amateur Open,1982,89.8,-180,-185,185,185,140,150,155,155,,200,215,-230,215,555,90,M,Сергей Зубков,SBD
Yes,Raw,5,Dmitriy Shelukhin,Amateur Open,1985,87,-170,170,180,180,-125,130,-140,130,,170,180,190,190,500,90,M,Дмитрий Шелухин,SBD
Yes,Raw,6,Sergey Puzanov,Amateur Open,1974,85.2,140,145,155,155,-100,-105,105,105,,175,185,-200,185,445,90,M,Сергей Пузанов,SBD
Yes,Raw,1,Nikolay Dobrokhotov,Amateur Masters 50-54,1957,88.9,170,180,185,185,130,140,145,145,,200,217.5,230,230,560,90,M,Николай Доброхотов,SBD
Yes,Raw,2,Aleksandr Rogalev,Amateur Masters 50-54,1957,88.9,150,160,,160,100,110,,110,,170,180,,180,450,90,M,Александр Рогалев,SBD
Yes,Raw,1,Nikita Boldyrev,Amateur Teen,1995,95.9,-145,145,157.5,157.5,-110,115,-120,115,,200,210,220,220,492.5,100,M,Никита Болдырев,SBD
Yes,Raw,DD,Artem Kobanov,Amateur Teen,1992,99.8,207.5,217.5,225,225,150,160,165,165,,235.5,247.5,258,258,,100,M,Артем Кобанов,SBD
Yes,Raw,1,Vladimir Muravyev,Amateur Juniors 20-23,1990,93.8,150,160,175,175,105,115,-120,115,,190,205,220,220,510,100,M,Владимир Муравьев,SBD
Yes,Raw,1,Andrey Poberezhnyy,Amateur Open,1986,99.8,200,210,220,220,150,157.5,162.5,162.5,,260,280,290,290,672.5,100,M,Андрей Побережный,SBD
Yes,Raw,2,Mikhail Evstigneev,Amateur Open,1976,98.9,180,190,200,200,-170,175,180,180,,210,-225,-230,210,590,100,M,Михаил Евстигнеев,SBD
Yes,Raw,1,Aleksandr Mishustin,Amateur Masters 45-49,1964,98.9,155,170,175,175,135,-145,145,145,,175,195,202.5,202.5,522.5,100,M,Александр Мишустин,SBD
Yes,Raw,1,Andrey Shmorgun,Amateur Open,1984,108.6,190,210,215,215,160,170,-175,170,,220,240,250,250,635,110,M,Андрей Шморгун,SBD
Yes,Raw,2,Andrey Sukharev,Amateur Open,1974,101.1,215,225,-235,225,155,160,-165,160,,215,225,-230,225,610,110,M,Андрей Сухарев,SBD
Yes,Raw,3,Sergey Timchenko,Amateur Open,1979,108.6,-190,-190,190,190,165,170,-175,170,,210,215,-230,215,575,110,M,Сергей Тимченко,SBD
Yes,Raw,5,Aleksandr Kuznetsov,Amateur Open,1979,107.5,200,215,,215,-185,,,,,-220,,,,215,110,M,Александр Кузнецов,SBD
Yes,Raw,DQ,Svyatoslav Kotik,Amateur Open,1992,107.8,205,-215.5,-215.5,205,140,147.5,-155,147.5,,190,205,-220,205,,110,M,Святослав Котик,SBD
Yes,Raw,1,Aleksandr Bit-Yukhan,Amateur Masters 40-44,1969,104.6,170,190,210,210,140,150,160,160,,190,-215,220,220,590,110,M,Александр Бит-Юхан,SBD
Yes,Raw,2,Valeriy Sytnikov,Amateur Masters 40-44,1970,100.2,162.5,172.5,180,180,127.5,137.5,142.5,142.5,,212.5,222.5,232.5,232.5,555,110,M,Валерий Сытников,SBD
Yes,Raw,1,Igor Eltsov,Amateur Open,1978,118,205,-215,-220,205,160,170,,170,,220,-245,245,245,620,125,M,Игорь Ельцов,SBD
Yes,Raw,DQ,Stanislav Averyanov,Amateur Open,1986,114.9,-130,-130,-130,,-100,,,,,-180,,,,,125,M,Станислав Аверьянов,SBD
Yes,Multi-ply,1,Natalya Kolobova,Amateur Open,1982,60,125,-130,-132.5,125,-62.5,62.5,-65,62.5,,115,120,-127.5,120,307.5,60,F,Наталья Колобова,SBD
Yes,Multi-ply,DQ,Aleksandr Rek,Amateur Open,1987,66.65,-215,-215,-220,,,,,,,,,,,,67.5,M,Александр Рек,SBD
Yes,Multi-ply,1,Pavel Barkanov,Amateur Teen,1993,74.5,120,130,-140,130,95,102.5,105,105,,150,160,-165,160,395,75,M,Павел Барканов,SBD
Yes,Multi-ply,1,Vladimir Kulakov,Amateur Open,1955,74.1,105,115,,115,90,,,90,,125,132.5,,132.5,337.5,75,M,Владимир Кулаков,SBD
Yes,Multi-ply,1,Vladimir Kulakov,Amateur Masters 55-59,1955,74.1,105,115,,115,90,95,,95,,125,,,125,335,75,M,Владимир Кулаков,SBD
Yes,Multi-ply,1,Petr Samko,Amateur Juniors 20-23,1987,80.9,120,130,135,135,95,102.5,105,105,,150,160,165,165,405,82.5,M,Петр Самко,SBD
Yes,Multi-ply,1,Konstantin Sapunkov,Amateur Open,1981,82.5,-230,240,,240,175,-185,-185,175,,215,225,-235,225,640,82.5,M,Константин Сапунков,SBD
Yes,Multi-ply,DQ,Ernest Gazaryan,Amateur Open,1979,81.4,-230,-230,-230,,-150,,,,,-190,,,,,82.5,M,Эрнест Газарян,SBD
Yes,Multi-ply,1,Sergey Naumkin,Amateur Masters 40-44,1971,75.5,150,160,170,170,120,130,-135,130,,175,190,-200,190,490,82.5,M,Сергей Наумкин,SBD
Yes,Multi-ply,DQ,Ilya Filippov,Amateur Teen,1993,90,-180,-180,-180,,-140,,,,,-210,,,,,90,M,Илья Филиппов,SBD
Yes,Multi-ply,1,Maksim Matros,Amateur Teen,1992,87.8,-220,220,232.5,232.5,135,145,,145,,230,245,-255,245,622.5,90,M,Максим Матрос,SBD
Yes,Multi-ply,2,Konstantin Kozlov,Amateur Juniors 20-23,1990,86.6,70,,,70,95,105,110,110,,100,125,150,150,330,90,M,Константин Козлов,SBD
Yes,Multi-ply,1,Denis Piklyaev,Amateur Open,1980,86.5,100,,,100,185,200,207.5,207.5,,100,150,,150,457.5,90,M,Денис Пикляев,SBD
Yes,Multi-ply,1,Dmitriy Solovyev #3,Amateur Open,1983,96.4,-295,295,-305,295,190,-205,-210,190,,285,302.5,-310,302.5,787.5,100,M,Дмитрий Соловьёв,SBD
Yes,Raw,1,Natalya Marieva,Amateur Masters 40-44,1968,47.4,,,,,50,-55,-55,50,,,,,,50,48,F,Наталья Мариева,B
Yes,Raw,1,Nadezhda Vlasova,Amateur Open,1982,53.7,,,,,57.5,-62.5,62.5,62.5,,,,,,62.5,56,F,Надежда Власова,B
Yes,Raw,1,Olga Timoschenko,Amateur Open,1985,58.3,,,,,40,42.5,-47.5,42.5,,,,,,42.5,60,F,Ольга Тимощенко,B
Yes,Raw,1,Olga Surkova,Amateur Juniors 20-23,1988,72.1,,,,,60,65,-67.5,65,,,,,,65,75,F,Ольга Суркова,B
Yes,Raw,1,Yuliya Shvedova-Viardo,Amateur Open,1984,69.5,,,,,75,80,-82.5,80,,,,,,80,75,F,Юлия Шведова-Виардо,B
Yes,Raw,2,Galina Kalinina,Amateur Open,1981,68.2,,,,,62.5,65,67.5,67.5,,,,,,67.5,75,F,Галина Калинина,B
Yes,Raw,1,Elena Titova,Amateur Masters 50-54,1957,79.5,,,,,50,-57.5,-57.5,50,,,,,,50,82.5,F,Елена Титова,B
Yes,Raw,1,Timur Vasilchenko,Amateur Teen,1995,56,,,,,70,75,77.5,77.5,,,,,,77.5,56,M,Тимур Васильченко,B
Yes,Raw,1,Vitaliy Penkov,Amateur Teen,1992,59.1,,,,,-65,-65,67.5,67.5,,,,,,67.5,60,M,Виталий Пеньков,B
Yes,Raw,1,Nikita Samokhvalov,Amateur Juniors 20-23,1988,58.7,,,,,115,-120,-120,115,,,,,,115,60,M,Никита Самохвалов,B
Yes,Raw,2,Aleksandr Volkov,Amateur Juniors 20-23,1988,59.1,,,,,105,-115,-115,105,,,,,,105,60,M,Александр Волков,B
Yes,Raw,3,Denislam Bayguzhin,Amateur Juniors 20-23,1989,59.5,,,,,-87.5,90,-92.5,90,,,,,,90,60,M,Денислам Байгужин,B
Yes,Raw,1,Nikita Samokhvalov,Amateur Open,1988,58.7,,,,,115,,,115,,,,,,115,60,M,Никита Самохвалов,B
Yes,Raw,2,Vitaliy Ryzhakov,Amateur Open,1984,59.4,,,,,105,-110,-110,105,,,,,,105,60,M,Виталий Рыжаков,B
Yes,Raw,3,Roman Korshunov,Amateur Open,1980,60,,,,,92.5,-100,-100,92.5,,,,,,92.5,60,M,Роман Коршунов,B
Yes,Raw,1,Artur Oganisyan,Amateur Teen,1994,67.2,,,,,-90,90,-100,90,,,,,,90,67.5,M,Артур Оганисян,B
Yes,Raw,2,Aleksey Zhizhin,Amateur Teen,1992,62.3,,,,,100,110,-115,110,,,,,,110,67.5,M,Алексей Жижин,B
Yes,Raw,3,Vitaliy Zhukov,Amateur Teen,1992,66.3,,,,,100,110,-115,110,,,,,,110,67.5,M,Виталий Жуков,B
Yes,Raw,1,Mikhail Sizov,Amateur Juniors 20-23,1989,62.7,,,,,-115,115,117.5,117.5,,,,,,117.5,67.5,M,Михаил Сизов,B
Yes,Raw,1,Ruslan Bayramov,Amateur Open,1986,67.5,,,,,-130,-130,130,130,,,,,,130,67.5,M,Руслан Байрамов,B
Yes,Raw,DQ,Mikhail Vorozhtsov,Amateur Open,1979,65,,,,,-125,-130,-130,,,,,,,,67.5,M,Михаил Ворожцов,B
Yes,Raw,1,Andrey Zakharov,Amateur Teen,1992,73.2,,,,,-125,125,-130,125,,,,,,125,75,M,Андрей Захаров,B
Yes,Raw,DQ,Oleg Stepanov,Amateur Teen,1992,70.1,,,,,-85,-85,-85,,,,,,,,75,M,Олег Степанов,B
Yes,Raw,1,Aleksey Solovyev,Amateur Juniors 20-23,1988,69.1,,,,,130,140,-150,140,,,,,,140,75,M,Алексей Соловьев,B
Yes,Raw,2,Mikhail Bakulin,Amateur Juniors 20-23,1988,74.2,,,,,125,130,135,135,,,,,,135,75,M,Михаил Бакулин,B
Yes,Raw,3,Denis Goncharov,Amateur Juniors 20-23,1989,74.3,,,,,125,132.5,-135,132.5,,,,,,132.5,75,M,Денис Гончаров,B
Yes,Raw,4,Anton Tatarinov,Amateur Juniors 20-23,1988,75,,,,,125,132.5,-140,132.5,,,,,,132.5,75,M,Антон Татаринов,B
Yes,Raw,5,Aleksandr Sereda,Amateur Juniors 20-23,1988,71.1,,,,,130,-135,-135,130,,,,,,130,75,M,Александр Середа,B
Yes,Raw,6,Ivan Andrusyak,Amateur Juniors 20-23,1989,72.4,,,,,130,-140,-140,130,,,,,,130,75,M,Иван Андрусяк,B
Yes,Raw,7,Rodion Androsov,Amateur Juniors 20-23,1989,74.2,,,,,130,-141,-142.5,130,,,,,,130,75,M,Родион Андросов,B
Yes,Raw,8,Andrey Valuevich,Amateur Juniors 20-23,1988,74,,,,,-125,125,-130,125,,,,,,125,75,M,Андрей Валуевич,B
Yes,Raw,9,Aleksandr Churakov,Amateur Juniors 20-23,1990,70.9,,,,,-115,115,-125,115,,,,,,115,75,M,Александр Чураков,B
Yes,Raw,10,Aleksandr Petrov,Amateur Juniors 20-23,1990,71.1,,,,,85,97.5,-110,97.5,,,,,,97.5,75,M,Александр Петров,B
Yes,Raw,1,Stanislav Chugaev,Amateur Open,1974,73.3,,,,,140,145,150,150,,,,,,150,75,M,Станислав Чугаев,B
Yes,Raw,2,Anatoliy Goncharov,Amateur Open,1976,74.3,,,,,140,-145,145,145,,,,,,145,75,M,Анатолий Гончаров,B
Yes,Raw,3,Dmitriy Firsaev,Amateur Open,1983,74.1,,,,,137.5,140,142.5,142.5,,,,,,142.5,75,M,Дмитрий Фирсаев,B
Yes,Raw,4,Roman Bedarev,Amateur Open,1986,74.1,,,,,-132.5,140,-145,140,,,,,,140,75,M,Роман Бедарев,B
Yes,Raw,5,Aleksey Volkov,Amateur Open,1982,74.5,,,,,135,-140,-140,135,,,,,,135,75,M,Алексей Волков,B
Yes,Raw,6,Mikhail Yurkov,Amateur Open,1986,72.3,,,,,-110,110,-117.5,110,,,,,,110,75,M,Михаил Юрков,B
Yes,Raw,7,Oleg Mokrov,Amateur Open,1976,73.5,,,,,110,-120,-120,110,,,,,,110,75,M,Олег Мокров,B
Yes,Raw,8,Andrey Nabatov,Amateur Open,1988,70.7,,,,,85,92.5,97.5,97.5,,,,,,97.5,75,M,Андрей Набатов,B
Yes,Raw,9,Savr Zaraev,Amateur Open,1978,75,,,,,-90,90,-97.5,90,,,,,,90,75,M,Савр Зараев,B
Yes,Raw,10,Mikhail Nabatov,Amateur Open,1982,74.6,,,,,-85,85,-92.5,85,,,,,,85,75,M,Михаил Набатов,B
Yes,Raw,DQ,Artem Larionov,Amateur Open,1978,75,,,,,-172.5,-172.5,-172.5,,,,,,,,75,M,Артем Ларионов,B
Yes,Raw,1,Ruslan Saidov,Amateur Masters 45-49,1966,74.2,,,,,140,150,-155,150,,,,,,150,75,M,Руслан Саидов,B
Yes,Raw,1,Vladimir Kulakov,Amateur Masters 55-59,1955,74.1,,,,,90,,,90,,,,,,90,75,M,Владимир Кулаков,B
Yes,Raw,1,Artur Nigmatullin,Amateur Teen,1994,77.2,,,,,125,-130,-130,125,,,,,,125,82.5,M,Артур Нигматуллин,B
Yes,Raw,1,Aleksandr Boldinov,Amateur Teen,1992,78.6,,,,,-130,135,140,140,,,,,,140,82.5,M,Александр Болдинов,B
Yes,Raw,DQ,Aleksandr Letynskiy,Amateur Teen,1994,78.9,,,,,-110,-115,-115,,,,,,,,82.5,M,Александр Летынский,B
Yes,Raw,1,Vladimir Schegolkov,Amateur Open,1973,82.1,,,,,150,-157.5,157.5,157.5,,,,,,157.5,82.5,M,Владимир Щегольков,B
Yes,Raw,2,Grigoriy Denisov,Amateur Open,1981,80.2,,,,,135,-142.5,145,145,,,,,,145,82.5,M,Григорий Денисов,B
Yes,Raw,3,Aleksandr Galanov,Amateur Open,1987,78.6,,,,,130,140,142.5,142.5,,,,,,142.5,82.5,M,Александр Галанов,B
Yes,Raw,4,Vladislav Girko,Amateur Open,1987,79.6,,,,,140,-150,-150,140,,,,,,140,82.5,M,Владислав Гирко,B
Yes,Raw,5,Ruslan Shlykov,Amateur Open,1974,80.4,,,,,137.5,-150,-150,137.5,,,,,,137.5,82.5,M,Руслан Шлыков,B
Yes,Raw,6,Vadim Sergeev,Amateur Open,1984,81.9,,,,,132.5,135,-137.5,135,,,,,,135,82.5,M,Вадим Сергеев,B
Yes,Raw,7,Aleksey Nikolaev,Amateur Open,1984,82.2,,,,,115,-132.5,-132.5,115,,,,,,115,82.5,M,Алексей Николаев,B
Yes,Raw,8,Aleksey Bogdanov,Amateur Open,1980,76,,,,,95,-102.5,-102.5,95,,,,,,95,82.5,M,Алексей Богданов,B
Yes,Raw,DQ,Aleksandr Lebedev,Amateur Open,1986,79.5,,,,,-125,-125,-132.5,,,,,,,,82.5,M,Александр Лебедев,B
Yes,Raw,DQ,Dmitriy Solnyshkov,Amateur Open,1983,80.6,,,,,-125,-125,-125,,,,,,,,82.5,M,Дмитрий Солнышков,B
Yes,Raw,DQ,Vladimir Bolataev,Amateur Open,1983,81.4,,,,,-132.5,-132.5,-132.5,,,,,,,,82.5,M,Владимир Болатаев,B
Yes,Raw,1,Vadim Zhilin,Amateur Masters 40-44,1968,79.2,,,,,100,105,110,110,,,,,,110,82.5,M,Вадим Жилин,B
Yes,Raw,1,Vladimir Kobets,Amateur Masters 45-49,1966,77.3,,,,,100,107.5,-112.5,107.5,,,,,,107.5,82.5,M,Владимир Кобец,B
Yes,Raw,1,Vyacheslav Stanchak,Amateur Masters 55-59,1952,82.3,,,,,135,142.5,-145,142.5,,,,,,142.5,82.5,M,Вячеслав Станчак,B
Yes,Raw,1,Andrey Zyabrin,Amateur Teen,1994,87.5,,,,,150,155,,155,,,,,,155,90,M,Андрей Зябрин,B
Yes,Raw,1,Aleksandr Yarets,Amateur Teen,1992,83,,,,,-142.5,142.5,145,145,,,,,,145,90,M,Александр Ярец,B
Yes,Raw,2,Maksim Popkov,Amateur Teen,1994,86.1,,,,,120,125,-130,125,,,,,,125,90,M,Максим Попков,B
Yes,Raw,2,Danil Burmistrov,Amateur Teen,1991,89.9,,,,,110,115,120,120,,,,,,120,90,M,Данил Бурмистров,B
Yes,Raw,1,Konstantin Chernev,Amateur Juniors 20-23,1989,86.3,,,,,-150,155,160,160,,,,,,160,90,M,Константин Чернев,B
Yes,Raw,2,Ilya Solovyev,Amateur Juniors 20-23,1991,85.2,,,,,130,137.5,145,145,,,,,,145,90,M,Илья Соловьев,B
Yes,Raw,3,Maksim Volkov,Amateur Juniors 20-23,1989,89.1,,,,,140,145,-150,145,,,,,,145,90,M,Максим Волков,B
Yes,Raw,4,Nikolay Loginov,Amateur Juniors 20-23,1989,90,,,,,145,-155,-155,145,,,,,,145,90,M,Николай Логинов,B
Yes,Raw,5,Andranik Arutyunyan,Amateur Juniors 20-23,1988,83.9,,,,,-130,-130,137.5,137.5,,,,,,137.5,90,M,Андраник Арутюнян,B
Yes,Raw,6,Kirill Marakshin,Amateur Juniors 20-23,1988,86.9,,,,,110,-115,-115,110,,,,,,110,90,M,Кирилл Маракшин,B
Yes,Raw,DQ,Stanislav Rybalchenko,Amateur Juniors 20-23,1988,84.8,,,,,-140,-145,-150,,,,,,,,90,M,Станислав Рыбальченко,B
Yes,Raw,1,Ruslan Savostyanov,Amateur Open,1985,87,,,,,160,170,-180,170,,,,,,170,90,M,Руслан Савостьянов,B
Yes,Raw,2,Denis Tonkikh,Amateur Open,1976,88.7,,,,,150,155,160,160,,,,,,160,90,M,Денис Тонких,B
Yes,Raw,3,Mikhail Pukhov,Amateur Open,1975,89,,,,,155,160,-162.5,160,,,,,,160,90,M,Михаил Пухов,B
Yes,Raw,4,Georgiy Gatitskiy,Amateur Open,1982,88.8,,,,,150,157.5,-160,157.5,,,,,,157.5,90,M,Георгий Гатицкий,B
Yes,Raw,5,Sergey Zubkov,Amateur Open,1982,89.8,,,,,145,-155,-155,145,,,,,,145,90,M,Сергей Зубков,B
Yes,Raw,6,Sergey Zazhigalin,Amateur Open,1984,87.8,,,,,137.5,142.5,,142.5,,,,,,142.5,90,M,Сергей Зажигалин,B
Yes,Raw,7,Aleksey Chernyshov,Amateur Open,1973,87.4,,,,,137.5,140,-142.5,140,,,,,,140,90,M,Алексей Чернышов,B
Yes,Raw,8,Dmitriy Sachkov,Amateur Open,1975,86.5,,,,,120,130,137.5,137.5,,,,,,137.5,90,M,Дмитрий Сачков,B
Yes,Raw,9,Yakov Bednyakov,Amateur Open,1979,86.9,,,,,135,137.5,-140,137.5,,,,,,137.5,90,M,Яков Бедняков,B
Yes,Raw,10,Viktor Nikiforov,Amateur Open,1983,86.9,,,,,115,125,137.5,137.5,,,,,,137.5,90,M,Виктор Никифоров,B
Yes,Raw,11,Mikhail Malyshev,Amateur Open,1985,87.9,,,,,-115,137.5,-140,137.5,,,,,,137.5,90,M,Михаил Малышев,B
Yes,Raw,12,Oleg Smirnov,Amateur Open,1986,87.2,,,,,120,-130,-137.5,120,,,,,,120,90,M,Олег Смирнов,B
Yes,Raw,13,Mikhail Rubtsov,Amateur Open,1974,88.7,,,,,-120,-120,120,120,,,,,,120,90,M,Михаил Рубцов,B
Yes,Raw,DQ,Sergey Chakhotkin,Amateur Open,1982,85.7,,,,,-135,-135,-135,,,,,,,,90,M,Сергей Чахоткин,B
Yes,Raw,DQ,Dmitriy Shelukhin,Amateur Open,1985,87,,,,,-130,,,,,,,,,,90,M,Дмитрий Шелухин,B
Yes,Raw,DQ,Petr Dvurechenskiy,Amateur Open,1986,90,,,,,-145,-152.5,-152.5,,,,,,,,90,M,Петр Двуреченский,B
Yes,Raw,1,Pavel Zhirnov,Amateur Masters 40-44,1971,89.6,,,,,-145,-150,150,150,,,,,,150,90,M,Павел Жирнов,B
Yes,Raw,2,Artur Novov,Amateur Masters 40-44,1969,88.4,,,,,-140,-145,145,145,-157.5,,,,,145,90,M,Артур Новов,B
Yes,Raw,1,Daniil Savik,Amateur Teen,1992,97.3,,,,,120,145,-152.5,145,,,,,,145,100,M,Даниил Савик,B
Yes,Raw,2,Ivan Kolachev,Amateur Teen,1993,98.5,,,,,110,125,-130,125,,,,,,125,100,M,Иван Колачев,B
Yes,Raw,DQ,Evgeniy Chizhik,Amateur Juniors 20-23,1990,98.1,,,,,-152.5,-152.5,-152.5,,,,,,,,100,M,Евгений Чижик,B
Yes,Raw,1,Andrey Kukhnevskiy,Amateur Open,1981,93.1,,,,,170,180,192.5,192.5,,,,,,192.5,100,M,Андрей Кухневский,B
Yes,Raw,2,Pavel Milovanov,Amateur Open,1977,100,,,,,187.5,192.5,-195,192.5,,,,,,192.5,100,M,Павел Милованов,B
Yes,Raw,3,Sergey Mantserov,Amateur Open,1970,93.8,,,,,180,-187.5,-187.5,180,,,,,,180,100,M,Сергей Манцеров,B
Yes,Raw,4,Dmitriy Gusev,Amateur Open,1985,92.6,,,,,160,170,175,175,,,,,,175,100,M,Дмитрий Гусев,B
Yes,Raw,5,Aleksey Stolyarov,Amateur Open,1986,97.1,,,,,167.5,-172.5,-172.5,167.5,,,,,,167.5,100,M,Алексей Столяров,B
Yes,Raw,6,Aleksey Fedorin,Amateur Open,1987,96.5,,,,,-152.5,162.5,-170,162.5,,,,,,162.5,100,M,Алексей Федорин,B
Yes,Raw,7,Vladislav Vikharev,Amateur Open,1983,99,,,,,-152.5,152.5,162.5,162.5,,,,,,162.5,100,M,Владислав Вихарев,B
Yes,Raw,8,Ivan Ivanov #16,Amateur Open,1969,96.6,,,,,142.5,150,-162.5,150,,,,,,150,100,M,Иван Иванов,B
Yes,Raw,9,Aleksandr Kuzin,Amateur Open,1980,98.3,,,,,-145,-145,145,145,,,,,,145,100,M,Александр Кузин,B
Yes,Raw,10,Ivan Basikhin,Amateur Open,1984,97,,,,,135,142.5,-147.5,142.5,,,,,,142.5,100,M,Иван Басихин,B
Yes,Raw,1,Sergey Mantserov,Amateur Masters 40-44,1970,93.8,,,,,180,-187.5,-187.5,180,,,,,,180,100,M,Сергей Манцеров,B
Yes,Raw,1,Aleksandr Mishustin,Amateur Masters 45-49,1964,98.9,,,,,130,142.5,-147.5,142.5,,,,,,142.5,100,M,Александр Мишустин,B
Yes,Raw,2,Andrei Sukin,Amateur Masters 45-49,1963,99.7,,,,,130,132.5,-135,132.5,,,,,,132.5,100,M,Андрей Сукин,B
Yes,Raw,DQ,Igor Dmitrienko,Amateur Masters 55-59,1955,97.1,,,,,-80,-82.5,-82.5,,,,,,,,100,M,Игорь Дмитриенко,B
Yes,Raw,1,Mikhail Kolachev,Amateur Teen,1994,107.4,,,,,120,-130,130,130,135.5,,,,,130,110,M,Михаил Колачев,B
Yes,Raw,1,Dmitriy Litvinov,Amateur Juniors 20-23,1989,106.8,,,,,155,165,-172.5,165,,,,,,165,110,M,Дмитрий Литвинов,B
Yes,Raw,1,Denis Grebnev,Amateur Open,1986,101,,,,,220,-230,-230,220,,,,,,220,110,M,Денис Гребнев,B
Yes,Raw,2,N. Emelyanov,Amateur Open,1979,107.4,,,,,175,182.5,187.5,187.5,,,,,,187.5,110,M,Николай Емельянов,B
Yes,Raw,3,Dmitriy Kashaev,Amateur Open,1982,106.1,,,,,185,-190,-190,185,,,,,,185,110,M,Дмитрий Кашаев,B
Yes,Raw,4,Aleksandr Savin,Amateur Open,1983,104.2,,,,,170,180,-185,180,,,,,,180,110,M,Александр Савин,B
Yes,Raw,5,Aleksey Arkharov,Amateur Open,1984,107,,,,,160,167.5,172.5,172.5,,,,,,172.5,110,M,Алексей Архаров,B
Yes,Raw,6,Sergey Timchenko,Amateur Open,1979,108.6,,,,,150,170,-175,170,,,,,,170,110,M,Сергей Тимченко,B
Yes,Raw,8,Evgeniy Ovsyannikov,Amateur Open,1983,108.8,,,,,167.5,-172.5,-172.5,167.5,,,,,,167.5,110,M,Евгений Овсянников,B
Yes,Raw,9,Ivan Isakov,Amateur Open,1981,104.7,,,,,160,-167.5,-167.5,160,,,,,,160,110,M,Иван Исаков,B
Yes,Raw,10,Arkadiy Uryvaev,Amateur Open,1976,108.8,,,,,150,160,-167.5,160,,,,,,160,110,M,Аркадий Урываев,B
Yes,Raw,11,Ruslan Muravyev,Amateur Open,1985,101.5,,,,,150,155,157.5,157.5,,,,,,157.5,110,M,Руслан Муравьев,B
Yes,Raw,12,Denis Borozna,Amateur Open,1972,106.6,,,,,155,-167.5,-167.5,155,,,,,,155,110,M,Денис Борозна,B
Yes,Raw,13,Ilya Znamenskiy,Amateur Open,1982,107.9,,,,,140,147.5,,147.5,,,,,,147.5,110,M,Илья Знаменский,B
Yes,Raw,DD,Konstantin Konstantinov,Amateur Open,1978,107.6,,,,,167.5,-175,-175,167.5,,,,,,,110,M,Константин Константинов,B
Yes,Raw,1,Leonid Palshin,Amateur Masters 40-44,1970,109,,,,,162.5,-167.5,167.5,167.5,,,,,,167.5,110,M,Леонид Пальшин,B
Yes,Raw,2,Andrey Myakshin,Amateur Masters 40-44,1971,101.7,,,,,150,155,162.5,162.5,,,,,,162.5,110,M,Андрей Мякшин,B
Yes,Raw,3,Ivan Burlov,Amateur Masters 40-44,1970,105.9,,,,,140,147.5,152.5,152.5,,,,,,152.5,110,M,Иван Бурлов,B
Yes,Raw,1,Denis Ogloblin,Amateur Open,1967,116.3,,,,,195,200,-202.5,200,,,,,,200,125,M,Денис Оглоблин,B
Yes,Raw,2,Aleksey Chilikin,Amateur Open,1980,116.7,,,,,190,200,-205,200,,,,,,200,125,M,Алексей Чиликин,B
Yes,Raw,3,Sergey Vorobyev,Amateur Open,1979,120,,,,,185,192.5,197.5,197.5,,,,,,197.5,125,M,Сергей Воробьев,B
Yes,Raw,4,Aleksey Rudko,Amateur Open,1973,112.9,,,,,180,190,-200,190,,,,,,190,125,M,Алексей Рудько,B
Yes,Raw,5,Andrey Khramtsov,Amateur Open,1984,116,,,,,180,-185,-185,180,,,,,,180,125,M,Андрей Храмцов,B
Yes,Raw,6,Aleksey Korovushkin,Amateur Open,1985,113,,,,,162.5,-170,-170,162.5,,,,,,162.5,125,M,Алексей Коровушкин,B
Yes,Raw,DQ,Yuriy Gordyakov,Amateur Open,1976,115.6,,,,,-202.5,-202.5,-202.5,,,,,,,,125,M,Юрий Гордяков,B
Yes,Raw,1,Denis Ogloblin,Amateur Masters 40-44,1967,116.3,,,,,195,200,-202.5,200,,,,,,200,125,M,Денис Оглоблин,B
Yes,Raw,1,Vasily Chernyshenko,Amateur Masters 45-49,1963,116.9,,,,,150,157.5,-160,157.5,,,,,,157.5,125,M,Василий Чернышенко,B
Yes,Raw,1,Denis Kondyakov,Amateur Open,1978,134.4,,,,,195,200,-210,200,,,,,,200,140,M,Денис Кондяков,B
Yes,Raw,1,Roman Mishurenkov,Amateur Open,1982,146.3,,,,,160,180,190,190,,,,,,190,140+,M,Роман Мишуренков,B
Yes,Multi-ply,1,Tatyana Pestova,Amateur Open,1987,66.8,,,,,-90,90,95,95,,,,,,95,67.5,F,Татьяна Пестова,B
Yes,Multi-ply,1,Aleksandr Rek,Amateur Open,1987,66.8,,,,,127.5,-132.5,-132.5,127.5,,,,,,127.5,67.5,M,Александр Рек,B
Yes,Multi-ply,1,Vladimir Kulakov,Amateur Open,1955,74.1,,,,,90,,,90,,,,,,90,75,M,Владимир Кулаков,B
Yes,Multi-ply,1,Vladimir Kulakov,Amateur Masters 55-59,1955,74.1,,,,,90,,,90,,,,,,90,75,M,Владимир Кулаков,B
Yes,Multi-ply,1,Denis Dobryanskiy,Amateur Open,1977,81.3,,,,,190,-200,-200,190,,,,,,190,82.5,M,Денис Добрянский,B
Yes,Multi-ply,2,Konstantin Sapunkov,Amateur Open,1981,82.5,,,,,170,180,190,190,,,,,,190,82.5,M,Константин Сапунков,B
Yes,Multi-ply,3,Aleksey Zhiburkin,Amateur Open,1985,82.3,,,,,-160,160,-170,160,,,,,,160,82.5,M,Алексей Жибуркин,B
Yes,Multi-ply,1,Vadim Guberskiy,Amateur Juniors 20-23,1991,87.4,,,,,-130,130,-140,130,,,,,,130,90,M,Вадим Губерский,B
Yes,Multi-ply,1,Igor Eremkin,Amateur Open,1973,89,,,,,190,-200,-200,190,,,,,,190,90,M,Игорь Еремкин,B
Yes,Multi-ply,2,Petr Koryugin,Amateur Open,1987,88.8,,,,,-170,175,-180,175,,,,,,175,90,M,Петр Корюгин,B
Yes,Multi-ply,DQ,Sergey Myasin,Amateur Juniors 20-23,1988,95.9,,,,,-130,-150,-150,,,,,,,,100,M,Сергей Мясин,B
Yes,Multi-ply,1,Denis Popov,Amateur Open,1982,94.8,,,,,-242.5,242.5,250,250,,,,,,250,100,M,Денис Попов,B
Yes,Multi-ply,2,Valeriy Kurochkin,Amateur Open,1978,99.9,,,,,232.5,-240,245,245,-253,,,,,245,100,M,Валерий Курочкин,B
Yes,Multi-ply,3,Mikhail Burlakov,Amateur Open,1979,98.8,,,,,200,-207.5,210,210,,,,,,210,100,M,Михаил Бурлаков,B
Yes,Multi-ply,1,Aleksey Ventsov,Amateur Open,1980,109.4,,,,,210,227.5,-235,227.5,,,,,,227.5,110,M,Алексей Венцов,B
Yes,Multi-ply,2,N. Emelyanov,Amateur Open,1979,107.4,,,,,200,210,-227.5,210,,,,,,210,110,M,Николай Емельянов,B
Yes,Multi-ply,DQ,Grigoriy Molchanov,Amateur Open,1976,108.6,,,,,-177.5,-177.5,-177.5,,,,,,,,110,M,Григорий Молчанов,B
Yes,Multi-ply,DD,Vadim Lebedev,Amateur Open,1985,121.4,,,,,210,230,-245,230,,,,,,,125,M,Вадим Лебедев,B
Yes,Multi-ply,DQ,Evgeniy Farkhutdinov,Amateur Masters 40-44,1968,114.1,,,,,-210,,,,,,,,,,125,M,Евгений Фархутдинов,B
No,Raw,1,Dmitriy Maleev,Pro Juniors 20-23,1990,82.5,-170,175,-180,175,135,142.5,152.5,152.5,,195,207.5,220,220,547.5,82.5,M,Дмитрий Малеев,SBD
No,Raw,2,Ragim Balakshiev,Pro Juniors 20-23,1990,76.9,160,170,-175,170,115,-125,-125,115,,195,205,212.5,212.5,497.5,82.5,M,Рагим Балакшиев,SBD
No,Raw,1,Arsen Dallakyan,Pro Open,1988,79,200,215,-230,215,135,142.5,-150,142.5,,205,215,225,225,582.5,82.5,M,Арсен Даллакян,SBD
No,Raw,2,Aleksandr Kozin,Pro Open,1973,81,190,-197.5,-197.5,190,-132.5,132.5,-135,132.5,,230,-235,-235,230,552.5,82.5,M,Александр Козин,SBD
No,Raw,3,Konstantin Massalin,Pro Open,1983,77.2,170,-177.5,-177.5,170,122.5,125,-127.5,125,,175,180,,180,475,82.5,M,Константин Массалин,SBD
No,Raw,DQ,Nikolay Kotlyarov,Pro Juniors 20-23,1990,88.6,-200,-200,-200,,-110,,,,,-200,,,,,90,M,Николай Котляров,SBD
No,Raw,1,Denis Kormilov,Pro Open,1976,86.9,210,225,235,235,160,-170,175,175,,220,235,250,250,660,90,M,Денис Кормилов,SBD
No,Raw,1,Amir Khusnutdinov,Pro Masters 60-64,1948,86.5,130,140,150,150,-130,-130,130,130,,130,150,170,170,450,90,M,Амир Хуснутдинов,SBD
No,Raw,1,Vitaliy Omelchenko,Pro Juniors 20-23,1990,96.6,220,-235,-235,220,170,-180,-180,170,,260,-280,,260,650,100,M,Віталій Омельченко,SBD
No,Raw,1,Sergey Nefedov,Pro Open,1980,97,-180,180,205,205,140,155,-165,155,,220,245,247.5,247.5,607.5,100,M,Сергей Нефедов,SBD
No,Raw,2,Dmitriy Panov,Pro Open,1983,95.6,210,220,-225,220,150,155,160,160,,205,215,225,225,605,100,M,Дмитрий Панов,SBD
No,Raw,3,Nikita Orlov,Pro Open,1987,97.2,-220,220,-230,220,160,165,-172.5,165,,150,,,150,535,100,M,Никита Орлов,SBD
No,Raw,DQ,Roman Artamonov,Pro Open,1974,99.1,-205,-205,-205,,-170,,,,,-230,,,,,100,M,Роман Артамонов,SBD
No,Raw,1,Mikhail Tsatsulin,Pro Juniors 20-23,1988,107.7,250,270,285,285,175,185,192.5,192.5,,300,320,335,335,812.5,110,M,Михаил Цацулин,SBD
No,Raw,2,Oleg Rendorenko,Pro Juniors 20-23,1991,101.8,250,260,-270,260,160,165,-170,165,,285,290,-295,290,715,110,M,Олег Рендоренко,SBD
No,Raw,3,Vitaly Mashkevich,Pro Juniors 20-23,1989,105.8,-200,200,-215,200,-160,160,172.5,172.5,,170,200,-220,200,572.5,110,M,Виталий Машкевич,SBD
No,Raw,1,Denis Gromanov,Pro Open,1981,108.9,220,240,-250,240,155,165,170,170,,210,240,260,260,670,110,M,Денис Громанов,SBD
No,Raw,1,Ilya Shaburov,Pro Juniors 20-23,1990,115.2,-190,190,-210,190,175,-185,-185,175,,280,-290,-290,280,645,125,M,Илья Шабуров,SBD
No,Raw,1,Oleg Zaytsev,Pro Open,1976,111.9,-230,235,-245,235,190,202.5,210,210,,250,265,292.5,292.5,737.5,125,M,Олег Зайцев,SBD
No,Raw,2,Sergey Tikhov,Pro Open,1981,111.4,-200,-210,210,210,175,190,-195,190,,270,290,-300,290,690,125,M,Сергей Тихов,SBD
No,Raw,3,Oleg Skorobreschuk,Pro Open,1977,113,250,260,-270,260,160,170,175,175,,240,250,,250,685,125,M,Олег Скоробрещук,SBD
No,Raw,4,Kirill Bakarinov,Pro Open,1987,115,-220,-230,235,235,135,-145,150,150,,230,250,265,265,650,125,M,Кирилл Бакаринов,SBD
No,Raw,1,Kirill Aleskovskiy,Pro Open,1974,134.8,225,235,-250,235,140,150,-157.5,150,,-230,230,240,240,625,140,M,Кирилл Алесковский,SBD
No,Multi-ply,1,Vizhe Mirmirani,Pro Masters 45-49,1965,60,-135,135,-145,135,75,-85,85,85,,130,140,-150,140,360,60,F,Виже Мирмирани,SBD
No,Multi-ply,1,Ilya Kirillov,Pro Teen,1996,52.5,110,-120,120,120,50,52.5,55,55,,90,100,-110,100,275,56,M,Илья Кириллов,SBD
No,Multi-ply,1,Andrey Matveev,Pro Open,1986,65.3,-175,175,-182.5,175,120,-125,125,125,,-170,170,205,205,505,67.5,M,Андрей Матвеев,SBD
No,Multi-ply,1,Vyacheslav Lyubimov,Pro Masters 40-44,1971,81.9,230,-245,245,245,180,-190,-195,180,,250,265,280,280,705,82.5,M,Вячеслав Любимов,SBD
No,Multi-ply,1,Sergey Mironov,Pro Open,1987,89.1,-275,275,-280,275,190,195,200,200,,280,300,310,310,785,90,M,Сергей Миронов,SBD
No,Multi-ply,2,Dmitriy Osipov,Pro Open,1987,84.6,-280,290,300,300,180,-195,195,195,,260,275,282.5,282.5,777.5,90,M,Дмитрий Осипов,SBD
No,Multi-ply,DQ,Sergey Larionov,Pro Open,1975,90,-240,-250,-250,,-182.5,,,,,-270,,,,,90,M,Сергей Ларионов,SBD
No,Multi-ply,1,Aleksandr Zagorodnikov,Pro Juniors 20-23,1989,93.1,-290,302.5,-310,302.5,170,180,-185,180,,-255,255,-265,255,737.5,100,M,Александр Загородников,SBD
No,Multi-ply,2,Oleg Falkovskiy,Pro Juniors 20-23,1989,98.4,-230,240,-250,240,170,180,-190,180,,240,255,270,270,690,100,M,Олег Фальковский,SBD
No,Multi-ply,1,Alexander Krovikov,Pro Masters 50-54,1961,93,160,180,-200,180,140,150,160,160,,160,190,,190,530,100,M,Александр Кровиков,SBD
No,Multi-ply,1,Igor Potapov,Pro Open,1987,109,150,-200,210,210,140,150,-160,150,,200,220,235,235,595,110,M,Игорь Потапов,SBD
No,Multi-ply,DQ,Vasiliy Voropaev,Pro Masters 55-59,1956,105.2,-230,-230,230,230,-140,-140,-140,,,-240,,,,,110,M,Василий Воропаев,SBD
No,Raw,1,Darya Kogadeeva,Pro Open,1978,69.1,,,,,100,110,-115,110,,,,,,110,75,F,Дарья Когадеева,B
No,Raw,1,Aleksey Schipanov,Pro Open,1980,66,,,,,120,125,-130,125,,,,,,125,67.5,M,Алексей Щипанов,B
No,Raw,1,Ivan Karangin,Pro Open,1985,72.2,,,,,150,155,-160,155,,,,,,155,75,M,Иван Карангин,B
No,Raw,2,Nikolay Petrakovich,Pro Open,1979,74,,,,,140,-145,-145,140,,,,,,140,75,M,Николай Петракович,B
No,Raw,1,Nikolay Ionov,Pro Masters 60-64,1949,75,,,,,80,90,100,100,,,,,,100,75,M,Николай Ионов,B
No,Raw,1,Aleksey Khvatov,Pro Open,1968,81.1,,,,,180,-190,-190,180,,,,,,180,82.5,M,Алексей Хватов,B
No,Raw,2,Aleksey Markov,Pro Open,1984,78.3,,,,,150,160,162.5,162.5,,,,,,162.5,82.5,M,Алексей Марков,B
No,Raw,3,Aleksandr Belskikh,Pro Open,1987,78.4,,,,,155,160,-165,160,,,,,,160,82.5,M,Александр Бельских,B
No,Raw,4,Mikhail Korolev,Pro Open,1977,80.4,,,,,120,125,132.5,132.5,,,,,,132.5,82.5,M,Михаил Королев,B
No,Raw,DQ,Vladimir Fateev,Pro Masters 45-49,1964,82.2,,,,,-150,-150,-150,,,,,,,,82.5,M,Владимир Фатеев,B
No,Raw,1,Aleksandr Glushnev,Pro Teen,1992,89.1,,,,,-157.5,157.5,-162.5,157.5,,,,,,157.5,90,M,Александр Глушнев,B
No,Raw,1,Pavel Leonov,Pro Open,1983,86.4,,,,,170,180,185,185,,,,,,185,90,M,Павел Леонов,B
No,Raw,2,Igor Kalugin,Pro Open,1983,89.7,,,,,170,-177.5,177.5,177.5,,,,,,177.5,90,M,Игорь Калугин,B
No,Raw,3,Aleksandr Kalyagin,Pro Open,1983,89.7,,,,,175,-182.5,-182.5,175,,,,,,175,90,M,Александр Калягин,B
No,Raw,4,Nikolay Bezuglov,Pro Open,1985,90,,,,,170,-180,,170,,,,,,170,90,M,Николай Безуглов,B
No,Raw,5,Ivan Trunov,Pro Open,1980,90,,,,,150,160,165,165,,,,,,165,90,M,Иван Трунов,B
No,Raw,6,Petr Sharkov,Pro Open,1983,89.5,,,,,145,-152.5,-152.5,145,,,,,,145,90,M,Петр Шарков,B
No,Raw,DQ,Valeriy Smirnov,Pro Open,1980,88.6,,,,,-160,-165,-165,,,,,,,,90,M,Валерий Смирнов,B
No,Raw,1,Amir Khusnutdinov,Pro Masters 60-64,1948,86.5,,,,,130,-150,150,150,,,,,,150,90,M,Амир Хуснутдинов,B
No,Raw,1,Evgeniy Abramov,Pro Open,1978,96.7,,,,,195,200,-202.5,200,,,,,,200,100,M,Евгений Абрамов,B
No,Raw,1,Vadim Shamkov,Pro Masters 40-44,1967,98.9,,,,,165,170,-175,170,,,,,,170,100,M,Вадим Шамков,B
No,Raw,DQ,Igor Shinov,Pro Masters 40-44,1970,96.3,,,,,-167.5,-167.5,-167.5,,,,,,,,100,M,Игорь Шинов,B
No,Raw,1,Vyacheslav Frank,Pro Masters 45-49,1962,97,,,,,132.5,137.5,-140,137.5,,,,,,137.5,100,M,Вячеслав Франк,B
No,Raw,1,Andrey Grudkin,Pro Open,1984,109.1,,,,,210,217.5,225,225,,,,,,225,110,M,Андрей Грудкин,B
No,Raw,2,Aleksey Karpikov,Pro Open,1979,109.1,,,,,190,-202.5,202.5,202.5,,,,,,202.5,110,M,Алексей Карпиков,B
No,Raw,3,Mikhail Knyazkov,Pro Open,1978,102.1,,,,,-185,190,-195,190,,,,,,190,110,M,Михаил Князьков,B
No,Raw,4,Yuriy Molodtsov,Pro Open,1975,101.7,,,,,170,-185,-185,170,,,,,,170,110,M,Юрий Молодцов,B
No,Raw,DQ,Georgiy Gusakov,Pro Open,1986,107.6,,,,,-202.5,-202.5,,,,,,,,,110,M,Георгий Гусаков,B
No,Raw,DQ,Igor Potapov,Pro Open,1987,109.9,,,,,-140,,,,,,,,,,110,M,Игорь Потапов,B
No,Raw,1,Aleksandr Dmitriev,Pro Masters 45-49,1964,106.5,,,,,170,-180,-180,170,,,,,,170,110,M,Александр Дмитриев,B
No,Raw,1,Roman Knischuk,Pro Open,1975,111.6,,,,,215,225,-232.5,225,,,,,,225,125,M,Роман Книщук,B
No,Raw,1,Sergey Rykov,Pro Masters 45-49,1965,116.3,,,,,-150,150,160,160,,,,,,160,125,M,Сергей Рыков,B
No,Raw,1,Viktor Kozlov,Pro Masters 45-49,1963,132.5,,,,,220,230,-240,230,,,,,,230,140,M,Виктор Козлов,B
No,Raw,1,Artem Fadeev,Pro Open,1980,165.6,,,,,210,222.5,-231,222.5,,,,,,222.5,140+,M,Артем Фадеев,B
No,Multi-ply,1,Aleksandr Fedorov,Pro Open,1976,65.2,,,,,135,140,145.5,145.5,150,,,,,145.5,67.5,M,Александр Федоров,B
No,Multi-ply,1,Dmitriy Korneev,Pro Open,1987,73.8,,,,,140,150,-155,150,,,,,,150,75,M,Дмитрий Корнеев,B
No,Multi-ply,1,Vasiliy Tsvetkov,Pro Open,1981,77.6,,,,,185,200,210,210,,,,,,210,82.5,M,Василий Цветков,B
No,Multi-ply,DQ,Bogdan Gutsalo,Pro Open,1981,82.5,,,,,-155,-155,-155,,,,,,,,82.5,M,Богдан Гуцало,B
No,Multi-ply,DQ,Vyacheslav Lyubimov,Pro Masters 40-44,1971,81.9,,,,,-180,,,,,,,,,,82.5,M,Вячеслав Любимов,B
No,Multi-ply,1,Alexander Petrov,Pro Open,1960,89.5,,,,,235,250,-260,250,,,,,,250,90,M,Александр Петров,B
No,Multi-ply,DQ,Igor Kalyta,Pro Open,1982,89.5,,,,,-240,-240,-240,,,,,,,,90,M,,B
No,Multi-ply,DQ,Evgeniy Mamtsev,Pro Open,1987,89.7,,,,,-200,-210,-210,,,,,,,,90,M,Евгений Мамцев,B
No,Multi-ply,1,Aleksandr Evsyutkin,Pro Juniors 20-23,1988,99.2,,,,,145,-155,-155,145,,,,,,145,100,M,Александр Евсюткин,B
No,Multi-ply,1,Marat Abdullin,Pro Open,1985,99.1,,,,,255,265,272.5,272.5,,,,,,272.5,100,M,Марат Абдуллин,B
No,Multi-ply,2,Mikhail Schegol'kov,Pro Open,1972,94.2,,,,,-245,245,252.5,252.5,,,,,,252.5,100,M,Михаил Щегольков,B
No,Multi-ply,3,Aleksey Rudkov,Pro Open,1974,95.4,,,,,180,190,200,200,,,,,,200,100,M,Алексей Рудков,B
No,Multi-ply,1,Viktor Naydenov,Pro Open,1987,120.1,,,,,360,375,,375,,,,,,375,125,M,Виктор Найденов,B
No,Multi-ply,2,Vadim Kiryushkin,Pro Open,1976,124.6,,,,,250,260,270,270,,,,,,270,125,M,Вадим Кирюшкин,B
No,Multi-ply,3,Maksim Tsukanov,Pro Open,1980,123.2,,,,,235,242.5,-250,242.5,,,,,,242.5,125,M,Максим Цуканов,B
No,Multi-ply,4,Sergey Galkin,Pro Open,1981,113.6,,,,,200,215,-230,215,,,,,,215,125,M,Сергей Галкин,B
No,Multi-ply,1,Vladimir Shmyrin,Pro Open,1984,133.4,,,,,270,280,-285,280,,,,,,280,140,M,Владимир Шмырин,B
